﻿<Cube xmlns:xsd="http://www.w3.org/2001/XMLSchema" xmlns:xsi="http://www.w3.org/2001/XMLSchema-instance" xmlns:ddl2="http://schemas.microsoft.com/analysisservices/2003/engine/2" xmlns:ddl2_2="http://schemas.microsoft.com/analysisservices/2003/engine/2/2" xmlns:ddl100_100="http://schemas.microsoft.com/analysisservices/2008/engine/100/100" xmlns:ddl200="http://schemas.microsoft.com/analysisservices/2010/engine/200" xmlns:ddl200_200="http://schemas.microsoft.com/analysisservices/2010/engine/200/200" xmlns:dwd="http://schemas.microsoft.com/DataWarehouse/Designer/1.0" dwd:design-time-name="3507662e-7d4d-45d6-b11c-bcd642c2014d" xmlns="http://schemas.microsoft.com/analysisservices/2003/engine">
  <ID>Colonie</ID>
  <Name>Colonie</Name>
  <CreatedTimestamp>0001-01-01T00:00:00Z</CreatedTimestamp>
  <LastSchemaUpdate>0001-01-01T00:00:00Z</LastSchemaUpdate>
  <Annotations>
    <Annotation>
      <Name>http://schemas.microsoft.com/DataWarehouse/Designer/1.0:DiagramLayout</Name>
      <Value>
        <dds xmlns="">
          <diagram fontclsid="{0BE35203-8F91-11CE-9DE3-00AA004BB851}" mouseiconclsid="{0BE35204-8F91-11CE-9DE3-00AA004BB851}" defaultlayout="MSDDS.Rectilinear" defaultlineroute="MSDDS.Rectilinear" version="7" nextobject="21" scale="100" pagebreakanchorx="0" pagebreakanchory="0" pagebreaksizex="0" pagebreaksizey="0" scrollleft="-2841" scrolltop="-4173" gridx="150" gridy="150" marginx="5000" marginy="5000" zoom="100" x="22939" y="12383" backcolor="15334399" defaultpersistence="2" PrintPageNumbersMode="3" PrintMarginTop="0" PrintMarginBottom="635" PrintMarginLeft="0" PrintMarginRight="0" marqueeselectionmode="0" mousepointer="0" snaptogrid="0" autotypeannotation="1" showscrollbars="1" viewpagebreaks="0" donotforceconnectorsbehindshapes="1" backpictureclsid="{00000000-0000-0000-0000-000000000000}">
            <font>
              <ddsxmlobjectstreamwrapper binary="01000000900144420100065461686f6d61" />
            </font>
            <mouseicon>
              <ddsxmlobjectstreamwrapper binary="6c74000000000000" />
            </mouseicon>
          </diagram>
          <layoutmanager>
            <ddsxmlobj />
          </layoutmanager>
          <ddscontrol controlprogid="DdsShapes.DdsObjectManagedBridge.2" tooltip="ColonieTipiVacanza" left="10088" top="5125" logicalid="10" controlid="1" masterid="0" hint1="0" hint2="0" width="4101" height="2302" noresize="0" nomove="0" nodefaultattachpoints="0" autodrag="1" usedefaultiddshape="1" selectable="1" showselectionhandles="1" allownudging="1" isannotation="0" dontautolayout="0" groupcollapsed="0" tabstop="1" visible="1" snaptogrid="0">
            <control>
              <ddsxmlobjectstreaminitwrapper binary="0008000005100000fe080000" />
            </control>
            <layoutobject>
              <ddsxmlobj>
                <property name="LogicalObject" value="dbo_ColonieTipiVacanza" vartype="8" />
              </ddsxmlobj>
            </layoutobject>
            <shape groupshapeid="0" groupnode="0" />
          </ddscontrol>
          <ddscontrol controlprogid="DdsShapes.DdsObjectManagedBridge.2" tooltip="ColonieTipiDestinazione" left="9890" top="0" logicalid="11" controlid="2" masterid="0" hint1="0" hint2="0" width="4498" height="2725" noresize="0" nomove="0" nodefaultattachpoints="0" autodrag="1" usedefaultiddshape="1" selectable="1" showselectionhandles="1" allownudging="1" isannotation="0" dontautolayout="0" groupcollapsed="0" tabstop="1" visible="1" snaptogrid="0">
            <control>
              <ddsxmlobjectstreaminitwrapper binary="0008000092110000a50a0000" />
            </control>
            <layoutobject>
              <ddsxmlobj>
                <property name="LogicalObject" value="dbo_ColonieTipiDestinazione" vartype="8" />
              </ddsxmlobj>
            </layoutobject>
            <shape groupshapeid="0" groupnode="0" />
          </ddscontrol>
          <ddscontrol controlprogid="DdsShapes.DdsObjectManagedBridge.2" tooltip="Domande" left="6521" top="9827" logicalid="12" controlid="3" masterid="0" hint1="0" hint2="0" width="3942" height="5000" noresize="0" nomove="0" nodefaultattachpoints="0" autodrag="1" usedefaultiddshape="1" selectable="1" showselectionhandles="1" allownudging="1" isannotation="0" dontautolayout="0" groupcollapsed="0" tabstop="1" visible="1" snaptogrid="0">
            <control>
              <ddsxmlobjectstreaminitwrapper binary="00080000660f000088130000" />
            </control>
            <layoutobject>
              <ddsxmlobj>
                <property name="LogicalObject" value="Domande" vartype="8" />
              </ddsxmlobj>
            </layoutobject>
            <shape groupshapeid="0" groupnode="0" />
          </ddscontrol>
          <ddscontrol controlprogid="DdsShapes.DdsObjectManagedBridge.2" tooltip="ColonieDestinazioni" left="2992" top="2139" logicalid="13" controlid="4" masterid="0" hint1="0" hint2="0" width="4498" height="3149" noresize="0" nomove="0" nodefaultattachpoints="0" autodrag="1" usedefaultiddshape="1" selectable="1" showselectionhandles="1" allownudging="1" isannotation="0" dontautolayout="0" groupcollapsed="0" tabstop="1" visible="1" snaptogrid="0">
            <control>
              <ddsxmlobjectstreaminitwrapper binary="00080000921100004d0c0000" />
            </control>
            <layoutobject>
              <ddsxmlobj>
                <property name="LogicalObject" value="dbo_ColonieDestinazioni" vartype="8" />
              </ddsxmlobj>
            </layoutobject>
            <shape groupshapeid="0" groupnode="0" />
          </ddscontrol>
          <ddscontrol controlprogid="DdsShapes.DdsObjectManagedBridge.2" tooltip="CasseEdili" left="20" top="10541" logicalid="14" controlid="5" masterid="0" hint1="0" hint2="0" width="4101" height="3572" noresize="0" nomove="0" nodefaultattachpoints="0" autodrag="1" usedefaultiddshape="1" selectable="1" showselectionhandles="1" allownudging="1" isannotation="0" dontautolayout="0" groupcollapsed="0" tabstop="1" visible="1" snaptogrid="0">
            <control>
              <ddsxmlobjectstreaminitwrapper binary="0008000005100000f40d0000" />
            </control>
            <layoutobject>
              <ddsxmlobj>
                <property name="LogicalObject" value="dbo_CasseEdili" vartype="8" />
              </ddsxmlobj>
            </layoutobject>
            <shape groupshapeid="0" groupnode="0" />
          </ddscontrol>
          <ddscontrol controlprogid="MSDDS.Polyline" left="7190" top="963" logicalid="15" controlid="6" masterid="0" hint1="0" hint2="0" width="3000" height="3050" noresize="0" nomove="0" nodefaultattachpoints="1" autodrag="0" usedefaultiddshape="0" selectable="1" showselectionhandles="0" allownudging="1" isannotation="0" dontautolayout="0" groupcollapsed="0" tabstop="1" visible="1" snaptogrid="0">
            <control>
              <ddsxmlobj>
                <polyline endtypedst="6" endtypesrc="3" usercolor="0" linestyle="0" linerender="1" customendtypedstid="0" customendtypesrcid="0" adornsvisible="1" />
              </ddsxmlobj>
            </control>
            <layoutobject>
              <ddsxmlobj>
                <property name="LogicalObject" value="dataSet.Relations[FK_ColonieDestinazioni_ColonieTipiDestinazione]" vartype="8" />
                <property name="Virtual" value="0" vartype="11" />
                <property name="VisibleAP" value="0" vartype="3" />
              </ddsxmlobj>
            </layoutobject>
            <connector lineroutestyle="MSDDS.Rectilinear" sourceid="2" destid="4" sourceattachpoint="18" destattachpoint="19" segmenteditmode="0" bendpointeditmode="0" bendpointvisibility="0" relatedid="0" virtual="0">
              <point x="9890" y="1362" />
              <point x="8690" y="1362" />
              <point x="8690" y="3713" />
              <point x="7490" y="3713" />
            </connector>
          </ddscontrol>
          <ddscontrol controlprogid="MSDDS.Polyline" left="11739" top="2425" logicalid="16" controlid="7" masterid="0" hint1="0" hint2="0" width="799" height="3200" noresize="0" nomove="0" nodefaultattachpoints="1" autodrag="0" usedefaultiddshape="0" selectable="1" showselectionhandles="0" allownudging="1" isannotation="0" dontautolayout="0" groupcollapsed="0" tabstop="1" visible="1" snaptogrid="0">
            <control>
              <ddsxmlobj>
                <polyline endtypedst="6" endtypesrc="3" usercolor="0" linestyle="0" linerender="1" customendtypedstid="0" customendtypesrcid="0" adornsvisible="1" />
              </ddsxmlobj>
            </control>
            <layoutobject>
              <ddsxmlobj>
                <property name="LogicalObject" value="dataSet.Relations[FK_ColonieTipiDestinazione_ColonieTipiVacanza]" vartype="8" />
                <property name="Virtual" value="0" vartype="11" />
                <property name="VisibleAP" value="0" vartype="3" />
              </ddsxmlobj>
            </layoutobject>
            <connector lineroutestyle="MSDDS.Rectilinear" sourceid="1" destid="2" sourceattachpoint="6" destattachpoint="7" segmenteditmode="0" bendpointeditmode="0" bendpointvisibility="0" relatedid="0" virtual="0">
              <point x="12138" y="5125" />
              <point x="12138" y="3925" />
              <point x="12139" y="3925" />
              <point x="12139" y="2725" />
            </connector>
          </ddscontrol>
          <ddscontrol controlprogid="MSDDS.Polyline" left="3821" top="11928" logicalid="18" controlid="9" masterid="0" hint1="0" hint2="0" width="3000" height="799" noresize="0" nomove="0" nodefaultattachpoints="1" autodrag="0" usedefaultiddshape="0" selectable="1" showselectionhandles="0" allownudging="1" isannotation="0" dontautolayout="0" groupcollapsed="0" tabstop="1" visible="1" snaptogrid="0">
            <control>
              <ddsxmlobj>
                <polyline endtypedst="6" endtypesrc="3" usercolor="0" linestyle="0" linerender="1" customendtypedstid="0" customendtypesrcid="0" adornsvisible="1" />
              </ddsxmlobj>
            </control>
            <layoutobject>
              <ddsxmlobj>
                <property name="LogicalObject" value="dataSet.Relations[Domande-CasseEdili]" vartype="8" />
                <property name="Virtual" value="0" vartype="11" />
                <property name="VisibleAP" value="0" vartype="3" />
              </ddsxmlobj>
            </layoutobject>
            <connector lineroutestyle="MSDDS.Rectilinear" sourceid="5" destid="3" sourceattachpoint="21" destattachpoint="22" segmenteditmode="0" bendpointeditmode="0" bendpointvisibility="0" relatedid="0" virtual="0">
              <point x="4121" y="12327" />
              <point x="6521" y="12327" />
            </connector>
          </ddscontrol>
          <ddscontrol controlprogid="MSDDS.Polyline" left="6492" top="4789" logicalid="20" controlid="11" masterid="0" hint1="0" hint2="0" width="799" height="5338" noresize="0" nomove="0" nodefaultattachpoints="1" autodrag="0" usedefaultiddshape="0" selectable="1" showselectionhandles="0" allownudging="1" isannotation="0" dontautolayout="0" groupcollapsed="0" tabstop="1" visible="1" snaptogrid="0">
            <control>
              <ddsxmlobj>
                <polyline endtypedst="6" endtypesrc="3" usercolor="0" linestyle="0" linerender="1" customendtypedstid="0" customendtypesrcid="0" adornsvisible="1" />
              </ddsxmlobj>
            </control>
            <layoutobject>
              <ddsxmlobj>
                <property name="LogicalObject" value="dataSet.Relations[Domande-ColonieDestinazioni]" vartype="8" />
                <property name="Virtual" value="0" vartype="11" />
                <property name="VisibleAP" value="0" vartype="3" />
              </ddsxmlobj>
            </layoutobject>
            <connector lineroutestyle="MSDDS.Rectilinear" sourceid="4" destid="3" sourceattachpoint="13" destattachpoint="0" segmenteditmode="0" bendpointeditmode="0" bendpointvisibility="0" relatedid="0" virtual="0">
              <point x="6891" y="5288" />
              <point x="6891" y="7557" />
              <point x="6842" y="7557" />
              <point x="6842" y="9827" />
            </connector>
          </ddscontrol>
        </dds>
      </Value>
    </Annotation>
    <Annotation>
      <Name>http://schemas.microsoft.com/DataWarehouse/Designer/1.0:ShowFriendlyNames</Name>
      <Value>true</Value>
    </Annotation>
    <Annotation>
      <Name>http://schemas.microsoft.com/DataWarehouse/Designer/1.0:ShowRelationshipNames</Name>
      <Value>false</Value>
    </Annotation>
    <Annotation>
      <Name>http://schemas.microsoft.com/DataWarehouse/Designer/1.0:UseDiagramDefaultLayout</Name>
      <Value>true</Value>
    </Annotation>
    <Annotation>
      <Name>http://schemas.microsoft.com/DataWarehouse/Designer/1.0:DiagramViewPortLeft</Name>
      <Value>-2841</Value>
    </Annotation>
    <Annotation>
      <Name>http://schemas.microsoft.com/DataWarehouse/Designer/1.0:DiagramViewPortTop</Name>
      <Value>-4173</Value>
    </Annotation>
    <Annotation>
      <Name>http://schemas.microsoft.com/DataWarehouse/Designer/1.0:DiagramBoundingLeft</Name>
      <Value>20</Value>
    </Annotation>
    <Annotation>
      <Name>http://schemas.microsoft.com/DataWarehouse/Designer/1.0:DiagramBoundingTop</Name>
      <Value>0</Value>
    </Annotation>
    <Annotation>
      <Name>http://schemas.microsoft.com/DataWarehouse/Designer/1.0:DiagramZoom</Name>
      <Value>100</Value>
    </Annotation>
  </Annotations>
  <LastProcessed>0001-01-01T00:00:00Z</LastProcessed>
  <State>Unprocessed</State>
  <Dimensions>
    <Dimension dwd:design-time-name="696c0f05-a0d3-4942-8b24-045c706c86df">
      <ID>Colonie Destinazioni</ID>
      <Name>Destinazioni</Name>
      <DimensionID>Colonie Destinazioni</DimensionID>
      <Attributes>
        <Attribute dwd:design-time-name="6a41cd99-c109-4356-a66b-91b81664f30e">
          <AttributeID>Id Colonie Destinazione</AttributeID>
        </Attribute>
        <Attribute dwd:design-time-name="576606c7-3a04-4d25-ac68-00a5924f98bc">
          <AttributeID>Id Colonie Tipo Destinazione</AttributeID>
        </Attribute>
        <Attribute dwd:design-time-name="256b4f59-ce2b-44ce-8900-f68f7325e5f9">
          <AttributeID>Id Colonie Tipo Vacanza</AttributeID>
        </Attribute>
      </Attributes>
    </Dimension>
    <Dimension dwd:design-time-name="2589f9a1-7281-4367-a80f-91380d00efb1">
      <ID>Time 1</ID>
      <Name>Data Domanda</Name>
      <DimensionID>Time 1 1</DimensionID>
      <Attributes>
        <Attribute dwd:design-time-name="370070cf-bb7b-48a9-9895-e11174a08afd">
          <AttributeID>PK Date</AttributeID>
        </Attribute>
        <Attribute dwd:design-time-name="38d673ea-fab6-4feb-b8b8-7792387d5e04">
          <AttributeID>Anno</AttributeID>
        </Attribute>
        <Attribute dwd:design-time-name="1b952d23-92f1-4c9e-aa44-31eb404b83b4">
          <AttributeID>Mese</AttributeID>
        </Attribute>
      </Attributes>
      <Hierarchies>
        <Hierarchy dwd:design-time-name="b04d2e77-f884-44f9-96c4-0401cab90c07">
          <HierarchyID>Hierarchy</HierarchyID>
        </Hierarchy>
      </Hierarchies>
    </Dimension>
    <Dimension dwd:design-time-name="b7db357a-e35b-48d7-9aa7-92548c31e708">
      <ID>Colonie Domande</ID>
      <Name>Colonie Domande</Name>
      <DimensionID>Colonie Domande</DimensionID>
      <Attributes>
        <Attribute dwd:design-time-name="adcf783b-5294-48dd-ae38-31d49fa5ec17">
          <AttributeID>Stato</AttributeID>
        </Attribute>
        <Attribute dwd:design-time-name="9f189f31-7322-414c-b63c-04b42a5c68d1">
          <AttributeID>Sesso</AttributeID>
        </Attribute>
        <Attribute dwd:design-time-name="d2f6a3f1-45fb-4870-af38-e6e023880dfe">
          <AttributeID>Cassa Edile</AttributeID>
        </Attribute>
        <Attribute dwd:design-time-name="cef0367e-6de0-4bc6-bfe8-7c6c836d4e00">
          <AttributeID>Provenienza</AttributeID>
        </Attribute>
        <Attribute dwd:design-time-name="0deb79ef-f9e5-4e8d-831b-428239553b33">
          <AttributeID>Fascia Età</AttributeID>
        </Attribute>
        <Attribute dwd:design-time-name="c8c5e09f-d077-46e5-b023-65545a8f614a">
          <AttributeID>Id Domanda</AttributeID>
        </Attribute>
      </Attributes>
    </Dimension>
    <Dimension dwd:design-time-name="8e412dc8-bb2b-47e4-b0ae-b5dbec586c5f">
      <ID>Casse Edili</ID>
      <Name>Casse Edili</Name>
      <DimensionID>Casse Edili</DimensionID>
      <Attributes>
        <Attribute dwd:design-time-name="316cf151-a229-49ea-bda5-d711bfb1bd26">
          <AttributeID>Id Cassa Edile</AttributeID>
        </Attribute>
      </Attributes>
    </Dimension>
  </Dimensions>
  <MeasureGroups>
    <MeasureGroup dwd:design-time-name="facd8070-1b64-4990-b076-12c436373b51">
      <ID>Domande</ID>
      <Name>Domande</Name>
      <CreatedTimestamp>0001-01-01T00:00:00Z</CreatedTimestamp>
      <LastSchemaUpdate>0001-01-01T00:00:00Z</LastSchemaUpdate>
      <LastProcessed>0001-01-01T00:00:00Z</LastProcessed>
      <State>Unprocessed</State>
      <Measures>
        <Measure dwd:design-time-name="ef54de3f-70af-4bba-b6d0-3d8e60df9f83">
          <ID>Domande Count</ID>
          <Name>Numero di Domande</Name>
          <AggregateFunction>DistinctCount</AggregateFunction>
          <Source dwd:design-time-name="b249b4e8-5b06-4f49-bbb2-0994675a9e72">
            <DataType>Integer</DataType>
            <Source xsi:type="ColumnBinding" dwd:design-time-name="d97fa63a-a262-4e4f-a7c6-ed36f790e26e">
              <TableID>Domande</TableID>
              <ColumnID>idColonieDomanda</ColumnID>
            </Source>
          </Source>
        </Measure>
        <Measure dwd:design-time-name="fa98263f-9c8e-44df-baa0-f59184f1ba2d">
          <ID>Maximum Data Inserimento Record</ID>
          <Name>Data aggiornamento colonie</Name>
          <AggregateFunction>Max</AggregateFunction>
          <Source dwd:design-time-name="3e9831e7-bed3-4527-a0ca-0e2901429f66">
            <DataType>Date</DataType>
            <Source xsi:type="ColumnBinding" dwd:design-time-name="e2971690-f683-43f9-a618-824e72639e07">
              <TableID>Domande</TableID>
              <ColumnID>DataInserimentoRecord</ColumnID>
            </Source>
          </Source>
        </Measure>
      </Measures>
      <StorageMode>Molap</StorageMode>
      <ProcessingMode>Regular</ProcessingMode>
      <Dimensions>
        <Dimension xsi:type="RegularMeasureGroupDimension" dwd:design-time-name="b6b7c822-7a9e-4d83-83f8-cf7d14ddf582">
          <CubeDimensionID>Colonie Destinazioni</CubeDimensionID>
          <Attributes>
            <Attribute dwd:design-time-name="37584b07-1b3d-477a-b416-9fb2629f99c5">
              <AttributeID>Id Colonie Destinazione</AttributeID>
              <KeyColumns>
                <KeyColumn dwd:design-time-name="88e8e34b-7cb7-41aa-9e09-96c0e1718c13">
                  <NullProcessing>UnknownMember</NullProcessing>
                  <DataType>Integer</DataType>
                  <Source xsi:type="ColumnBinding" dwd:design-time-name="321f00e6-5273-490f-b6f9-b7efbb55a6b5">
                    <TableID>Domande</TableID>
                    <ColumnID>idColonieDestinazione</ColumnID>
                  </Source>
                </KeyColumn>
              </KeyColumns>
              <Type>Granularity</Type>
            </Attribute>
          </Attributes>
        </Dimension>
        <Dimension xsi:type="RegularMeasureGroupDimension" dwd:design-time-name="165ea335-3495-4a7e-9e94-0a48f98003f4">
          <CubeDimensionID>Time 1</CubeDimensionID>
          <Attributes>
            <Attribute dwd:design-time-name="65a7dfd8-602f-4b5b-8c9b-3298b4eefe6e">
              <AttributeID>PK Date</AttributeID>
              <KeyColumns>
                <KeyColumn dwd:design-time-name="d02e1804-bb5f-4909-8c81-c3142537c55c">
                  <NullProcessing>UnknownMember</NullProcessing>
                  <DataType>Date</DataType>
                  <Source xsi:type="ColumnBinding" dwd:design-time-name="db97fdaf-3360-466f-93cb-fd8c3bb99087">
                    <TableID>Domande</TableID>
                    <ColumnID>data</ColumnID>
                  </Source>
                </KeyColumn>
              </KeyColumns>
              <Type>Granularity</Type>
            </Attribute>
          </Attributes>
        </Dimension>
        <Dimension xsi:type="RegularMeasureGroupDimension" dwd:design-time-name="64bccc0e-193c-4a4f-a4f1-fa1b246604d3">
          <CubeDimensionID>Casse Edili</CubeDimensionID>
          <Attributes>
            <Attribute dwd:design-time-name="d6ff24e0-3ae7-4294-a691-786c2ff4ac66">
              <AttributeID>Id Cassa Edile</AttributeID>
              <KeyColumns>
                <KeyColumn dwd:design-time-name="ae4c5260-7791-4639-aa78-089d0bb8ce20">
                  <DataType>WChar</DataType>
                  <DataSize>4</DataSize>
                  <Source xsi:type="ColumnBinding" dwd:design-time-name="82c3cd34-47c6-417c-99ed-2be1073612e7">
                    <TableID>Domande</TableID>
                    <ColumnID>idCassaEdile</ColumnID>
                  </Source>
                </KeyColumn>
              </KeyColumns>
              <Type>Granularity</Type>
            </Attribute>
          </Attributes>
        </Dimension>
        <Dimension xsi:type="RegularMeasureGroupDimension" dwd:design-time-name="715fc3cd-5654-412d-941f-51abe4b05bea">
          <CubeDimensionID>Colonie Domande</CubeDimensionID>
          <Attributes>
            <Attribute dwd:design-time-name="e79126b6-99fb-4c8a-aa2d-5eaa2fad80c4">
              <AttributeID>Id Domanda</AttributeID>
              <KeyColumns>
                <KeyColumn dwd:design-time-name="7cf23787-6bec-486b-888d-e4ceffc502e7">
                  <DataType>BigInt</DataType>
                  <Source xsi:type="ColumnBinding" dwd:design-time-name="8940ed25-e32c-4ea0-8abb-ae186cacc7e1">
                    <TableID>Domande</TableID>
                    <ColumnID>idDomanda</ColumnID>
                  </Source>
                </KeyColumn>
              </KeyColumns>
              <Type>Granularity</Type>
            </Attribute>
          </Attributes>
        </Dimension>
      </Dimensions>
      <Partitions />
    </MeasureGroup>
  </MeasureGroups>
  <Source dwd:design-time-name="4171b9eb-d8f6-40d0-9a61-d5f9a7e1f3a1">
    <DataSourceViewID>Colonie</DataSourceViewID>
  </Source>
</Cube>