﻿<Cube xmlns:xsd="http://www.w3.org/2001/XMLSchema" xmlns:xsi="http://www.w3.org/2001/XMLSchema-instance" xmlns:ddl2="http://schemas.microsoft.com/analysisservices/2003/engine/2" xmlns:ddl2_2="http://schemas.microsoft.com/analysisservices/2003/engine/2/2" xmlns:ddl100_100="http://schemas.microsoft.com/analysisservices/2008/engine/100/100" xmlns:ddl200="http://schemas.microsoft.com/analysisservices/2010/engine/200" xmlns:ddl200_200="http://schemas.microsoft.com/analysisservices/2010/engine/200/200" xmlns:dwd="http://schemas.microsoft.com/DataWarehouse/Designer/1.0" dwd:design-time-name="56448d6f-2ee7-4970-8b4c-e50330713b5b" xmlns="http://schemas.microsoft.com/analysisservices/2003/engine">
  <ID>Massa Salariale</ID>
  <Name>Massa Salariale</Name>
  <CreatedTimestamp>0001-01-01T00:00:00Z</CreatedTimestamp>
  <LastSchemaUpdate>0001-01-01T00:00:00Z</LastSchemaUpdate>
  <Annotations>
    <Annotation>
      <Name>http://schemas.microsoft.com/DataWarehouse/Designer/1.0:DiagramLayout</Name>
      <Value>
        <dds xmlns="">
          <diagram fontclsid="{0BE35203-8F91-11CE-9DE3-00AA004BB851}" mouseiconclsid="{0BE35204-8F91-11CE-9DE3-00AA004BB851}" defaultlayout="MSDDS.Rectilinear" defaultlineroute="MSDDS.Rectilinear" version="7" nextobject="28" scale="100" pagebreakanchorx="0" pagebreakanchory="0" pagebreaksizex="0" pagebreaksizey="0" scrollleft="-8318" scrolltop="2656" gridx="150" gridy="150" marginx="5000" marginy="5000" zoom="75" x="22913" y="12383" backcolor="15334399" defaultpersistence="2" PrintPageNumbersMode="3" PrintMarginTop="0" PrintMarginBottom="635" PrintMarginLeft="0" PrintMarginRight="0" marqueeselectionmode="0" mousepointer="0" snaptogrid="0" autotypeannotation="1" showscrollbars="1" viewpagebreaks="0" donotforceconnectorsbehindshapes="1" backpictureclsid="{00000000-0000-0000-0000-000000000000}">
            <font>
              <ddsxmlobjectstreamwrapper binary="01000000900144420100065461686f6d61" />
            </font>
            <mouseicon>
              <ddsxmlobjectstreamwrapper binary="6c74000000000000" />
            </mouseicon>
          </diagram>
          <layoutmanager>
            <ddsxmlobj />
          </layoutmanager>
          <ddscontrol controlprogid="DdsShapes.DdsObjectManagedBridge.2" tooltip="RapportiLavoratoreImpresaCompleti" left="9167" top="11944" logicalid="14" controlid="1" masterid="0" hint1="0" hint2="0" width="4128" height="5000" noresize="0" nomove="0" nodefaultattachpoints="0" autodrag="1" usedefaultiddshape="1" selectable="1" showselectionhandles="1" allownudging="1" isannotation="0" dontautolayout="0" groupcollapsed="0" tabstop="1" visible="1" snaptogrid="0">
            <control>
              <ddsxmlobjectstreaminitwrapper binary="000800002010000088130000" />
            </control>
            <layoutobject>
              <ddsxmlobj>
                <property name="LogicalObject" value="dbo_RapportiLavoratoreImpresaCompleti" vartype="8" />
              </ddsxmlobj>
            </layoutobject>
            <shape groupshapeid="0" groupnode="0" />
          </ddscontrol>
          <ddscontrol controlprogid="DdsShapes.DdsObjectManagedBridge.2" tooltip="ImpreseDenunce" left="1893" top="19344" logicalid="15" controlid="2" masterid="0" hint1="0" hint2="0" width="3000" height="1879" noresize="0" nomove="0" nodefaultattachpoints="0" autodrag="1" usedefaultiddshape="1" selectable="1" showselectionhandles="1" allownudging="1" isannotation="0" dontautolayout="0" groupcollapsed="0" tabstop="1" visible="1" snaptogrid="0">
            <control>
              <ddsxmlobjectstreaminitwrapper binary="00080000b80b000057070000" />
            </control>
            <layoutobject>
              <ddsxmlobj>
                <property name="LogicalObject" value="ImpreseDenunce" vartype="8" />
              </ddsxmlobj>
            </layoutobject>
            <shape groupshapeid="0" groupnode="0" />
          </ddscontrol>
          <ddscontrol controlprogid="DdsShapes.DdsObjectManagedBridge.2" tooltip="OreDenunciateComplete" left="1329" top="5125" logicalid="16" controlid="3" masterid="0" hint1="0" hint2="0" width="4128" height="4419" noresize="0" nomove="0" nodefaultattachpoints="0" autodrag="1" usedefaultiddshape="1" selectable="1" showselectionhandles="1" allownudging="1" isannotation="0" dontautolayout="0" groupcollapsed="0" tabstop="1" visible="1" snaptogrid="0">
            <control>
              <ddsxmlobjectstreaminitwrapper binary="000800002010000043110000" />
            </control>
            <layoutobject>
              <ddsxmlobj>
                <property name="LogicalObject" value="dbo_OreDenunciateComplete" vartype="8" />
              </ddsxmlobj>
            </layoutobject>
            <shape groupshapeid="0" groupnode="0" />
          </ddscontrol>
          <ddscontrol controlprogid="DdsShapes.DdsObjectManagedBridge.2" tooltip="TipiOra" left="1329" top="0" logicalid="17" controlid="4" masterid="0" hint1="0" hint2="0" width="4128" height="2725" noresize="0" nomove="0" nodefaultattachpoints="0" autodrag="1" usedefaultiddshape="1" selectable="1" showselectionhandles="1" allownudging="1" isannotation="0" dontautolayout="0" groupcollapsed="0" tabstop="1" visible="1" snaptogrid="0">
            <control>
              <ddsxmlobjectstreaminitwrapper binary="0008000020100000a50a0000" />
            </control>
            <layoutobject>
              <ddsxmlobj>
                <property name="LogicalObject" value="dbo_TipiOra" vartype="8" />
              </ddsxmlobj>
            </layoutobject>
            <shape groupshapeid="0" groupnode="0" />
          </ddscontrol>
          <ddscontrol controlprogid="DdsShapes.DdsObjectManagedBridge.2" tooltip="Imprese" left="20" top="11944" logicalid="18" controlid="5" masterid="0" hint1="0" hint2="0" width="6747" height="5000" noresize="0" nomove="0" nodefaultattachpoints="0" autodrag="1" usedefaultiddshape="1" selectable="1" showselectionhandles="1" allownudging="1" isannotation="0" dontautolayout="0" groupcollapsed="0" tabstop="1" visible="1" snaptogrid="0">
            <control>
              <ddsxmlobjectstreaminitwrapper binary="000800005b1a000088130000" />
            </control>
            <layoutobject>
              <ddsxmlobj>
                <property name="LogicalObject" value="dbo_Imprese" vartype="8" />
              </ddsxmlobj>
            </layoutobject>
            <shape groupshapeid="0" groupnode="0" />
          </ddscontrol>
          <ddscontrol controlprogid="MSDDS.Polyline" left="6467" top="14045" logicalid="19" controlid="6" masterid="0" hint1="0" hint2="0" width="3000" height="799" noresize="0" nomove="0" nodefaultattachpoints="1" autodrag="0" usedefaultiddshape="0" selectable="1" showselectionhandles="0" allownudging="1" isannotation="0" dontautolayout="0" groupcollapsed="0" tabstop="1" visible="1" snaptogrid="0">
            <control>
              <ddsxmlobj>
                <polyline endtypedst="6" endtypesrc="3" usercolor="0" linestyle="0" linerender="1" customendtypedstid="0" customendtypesrcid="0" adornsvisible="1" />
              </ddsxmlobj>
            </control>
            <layoutobject>
              <ddsxmlobj>
                <property name="LogicalObject" value="dataSet.Relations[FK_RapportoLavoratoreImpresa_Imprese]" vartype="8" />
                <property name="Virtual" value="0" vartype="11" />
                <property name="VisibleAP" value="0" vartype="3" />
              </ddsxmlobj>
            </layoutobject>
            <connector lineroutestyle="MSDDS.Rectilinear" sourceid="5" destid="1" sourceattachpoint="31" destattachpoint="22" segmenteditmode="0" bendpointeditmode="0" bendpointvisibility="0" relatedid="0" virtual="0">
              <point x="6767" y="14444" />
              <point x="9167" y="14444" />
            </connector>
          </ddscontrol>
          <ddscontrol controlprogid="MSDDS.Polyline" left="2994" top="16445" logicalid="20" controlid="7" masterid="0" hint1="0" hint2="0" width="799" height="3199" noresize="0" nomove="0" nodefaultattachpoints="1" autodrag="0" usedefaultiddshape="0" selectable="1" showselectionhandles="0" allownudging="1" isannotation="0" dontautolayout="0" groupcollapsed="0" tabstop="1" visible="1" snaptogrid="0">
            <control>
              <ddsxmlobj>
                <polyline endtypedst="6" endtypesrc="3" usercolor="0" linestyle="0" linerender="1" customendtypedstid="0" customendtypesrcid="0" adornsvisible="1" />
              </ddsxmlobj>
            </control>
            <layoutobject>
              <ddsxmlobj>
                <property name="LogicalObject" value="dataSet.Relations[ImpreseDenunce-Imprese]" vartype="8" />
                <property name="Virtual" value="0" vartype="11" />
                <property name="VisibleAP" value="0" vartype="3" />
              </ddsxmlobj>
            </layoutobject>
            <connector lineroutestyle="MSDDS.Rectilinear" sourceid="5" destid="2" sourceattachpoint="11" destattachpoint="4" segmenteditmode="0" bendpointeditmode="0" bendpointvisibility="0" relatedid="0" virtual="0">
              <point x="3393" y="16944" />
              <point x="3393" y="19344" />
            </connector>
          </ddscontrol>
          <ddscontrol controlprogid="MSDDS.Polyline" left="2994" top="2226" logicalid="21" controlid="8" masterid="0" hint1="0" hint2="0" width="799" height="3199" noresize="0" nomove="0" nodefaultattachpoints="1" autodrag="0" usedefaultiddshape="0" selectable="1" showselectionhandles="0" allownudging="1" isannotation="0" dontautolayout="0" groupcollapsed="0" tabstop="1" visible="1" snaptogrid="0">
            <control>
              <ddsxmlobj>
                <polyline endtypedst="6" endtypesrc="3" usercolor="0" linestyle="0" linerender="1" customendtypedstid="0" customendtypesrcid="0" adornsvisible="1" />
              </ddsxmlobj>
            </control>
            <layoutobject>
              <ddsxmlobj>
                <property name="LogicalObject" value="dataSet.Relations[FK_OreDenunciate_TipiOra]" vartype="8" />
                <property name="Virtual" value="0" vartype="11" />
                <property name="VisibleAP" value="0" vartype="3" />
              </ddsxmlobj>
            </layoutobject>
            <connector lineroutestyle="MSDDS.Rectilinear" sourceid="4" destid="3" sourceattachpoint="7" destattachpoint="6" segmenteditmode="0" bendpointeditmode="0" bendpointvisibility="0" relatedid="0" virtual="0">
              <point x="3393" y="2725" />
              <point x="3393" y="5125" />
            </connector>
          </ddscontrol>
          <ddscontrol controlprogid="MSDDS.Polyline" left="2994" top="9244" logicalid="22" controlid="9" masterid="0" hint1="0" hint2="0" width="799" height="3200" noresize="0" nomove="0" nodefaultattachpoints="1" autodrag="0" usedefaultiddshape="0" selectable="1" showselectionhandles="0" allownudging="1" isannotation="0" dontautolayout="0" groupcollapsed="0" tabstop="1" visible="1" snaptogrid="0">
            <control>
              <ddsxmlobj>
                <polyline endtypedst="6" endtypesrc="3" usercolor="0" linestyle="0" linerender="1" customendtypedstid="0" customendtypesrcid="0" adornsvisible="1" />
              </ddsxmlobj>
            </control>
            <layoutobject>
              <ddsxmlobj>
                <property name="LogicalObject" value="dataSet.Relations[FK_OreDenunciate_Imprese]" vartype="8" />
                <property name="Virtual" value="0" vartype="11" />
                <property name="VisibleAP" value="0" vartype="3" />
              </ddsxmlobj>
            </layoutobject>
            <connector lineroutestyle="MSDDS.Rectilinear" sourceid="5" destid="3" sourceattachpoint="10" destattachpoint="7" segmenteditmode="0" bendpointeditmode="0" bendpointvisibility="0" relatedid="0" virtual="0">
              <point x="3393" y="11944" />
              <point x="3393" y="9544" />
            </connector>
          </ddscontrol>
          <ddscontrol controlprogid="DdsShapes.DdsObjectManagedBridge.2" tooltip="Time" left="5650" top="5156" logicalid="23" controlid="10" masterid="0" hint1="0" hint2="0" width="4657" height="5000" noresize="0" nomove="0" nodefaultattachpoints="0" autodrag="1" usedefaultiddshape="1" selectable="1" showselectionhandles="1" allownudging="1" isannotation="0" dontautolayout="0" groupcollapsed="0" tabstop="1" visible="1" snaptogrid="0">
            <control>
              <ddsxmlobjectstreaminitwrapper binary="000800003112000088130000" />
            </control>
            <layoutobject>
              <ddsxmlobj>
                <property name="LogicalObject" value="dbo_Time" vartype="8" />
              </ddsxmlobj>
            </layoutobject>
            <shape groupshapeid="0" groupnode="0" />
          </ddscontrol>
          <ddscontrol controlprogid="DdsShapes.DdsObjectManagedBridge.2" tooltip="Lavoratori" left="11962" top="4472" logicalid="24" controlid="11" masterid="0" hint1="0" hint2="0" width="4057" height="3633" noresize="0" nomove="0" nodefaultattachpoints="0" autodrag="1" usedefaultiddshape="1" selectable="1" showselectionhandles="1" allownudging="1" isannotation="0" dontautolayout="0" groupcollapsed="0" tabstop="1" visible="1" snaptogrid="0">
            <control>
              <ddsxmlobjectstreaminitwrapper binary="00080000d90f0000310e0000" />
            </control>
            <layoutobject>
              <ddsxmlobj>
                <property name="LogicalObject" value="Lavoratori" vartype="8" />
              </ddsxmlobj>
            </layoutobject>
            <shape groupshapeid="0" groupnode="0" />
          </ddscontrol>
          <ddscontrol controlprogid="DdsShapes.DdsObjectManagedBridge.2" tooltip="Imprese" left="13906" top="10156" logicalid="25" controlid="12" masterid="0" hint1="0" hint2="0" width="3704" height="5000" noresize="0" nomove="0" nodefaultattachpoints="0" autodrag="1" usedefaultiddshape="1" selectable="1" showselectionhandles="1" allownudging="1" isannotation="0" dontautolayout="0" groupcollapsed="0" tabstop="1" visible="1" snaptogrid="0">
            <control>
              <ddsxmlobjectstreaminitwrapper binary="00080000780e000088130000" />
            </control>
            <layoutobject>
              <ddsxmlobj>
                <property name="LogicalObject" value="dbo_Imprese1" vartype="8" />
              </ddsxmlobj>
            </layoutobject>
            <shape groupshapeid="0" groupnode="0" />
          </ddscontrol>
          <ddscontrol controlprogid="MSDDS.Polyline" left="10007" top="5057" logicalid="26" controlid="13" masterid="0" hint1="0" hint2="0" width="4199" height="10099" noresize="0" nomove="0" nodefaultattachpoints="1" autodrag="0" usedefaultiddshape="0" selectable="1" showselectionhandles="0" allownudging="1" isannotation="0" dontautolayout="0" groupcollapsed="0" tabstop="1" visible="1" snaptogrid="0">
            <control>
              <ddsxmlobj>
                <polyline endtypedst="6" endtypesrc="3" usercolor="0" linestyle="0" linerender="1" customendtypedstid="0" customendtypesrcid="0" adornsvisible="1" />
              </ddsxmlobj>
            </control>
            <layoutobject>
              <ddsxmlobj>
                <property name="LogicalObject" value="dataSet.Relations[Imprese-Time]" vartype="8" />
                <property name="Virtual" value="0" vartype="11" />
                <property name="VisibleAP" value="0" vartype="3" />
              </ddsxmlobj>
            </layoutobject>
            <connector lineroutestyle="MSDDS.Rectilinear" sourceid="10" destid="12" sourceattachpoint="19" destattachpoint="30" segmenteditmode="0" bendpointeditmode="0" bendpointvisibility="0" relatedid="0" virtual="0">
              <point x="10307" y="5456" />
              <point x="12106" y="5456" />
              <point x="12106" y="14856" />
              <point x="13906" y="14856" />
            </connector>
          </ddscontrol>
        </dds>
      </Value>
    </Annotation>
    <Annotation>
      <Name>http://schemas.microsoft.com/DataWarehouse/Designer/1.0:ShowFriendlyNames</Name>
      <Value>true</Value>
    </Annotation>
    <Annotation>
      <Name>http://schemas.microsoft.com/DataWarehouse/Designer/1.0:ShowRelationshipNames</Name>
      <Value>false</Value>
    </Annotation>
    <Annotation>
      <Name>http://schemas.microsoft.com/DataWarehouse/Designer/1.0:UseDiagramDefaultLayout</Name>
      <Value>true</Value>
    </Annotation>
    <Annotation>
      <Name>http://schemas.microsoft.com/DataWarehouse/Designer/1.0:DiagramViewPortLeft</Name>
      <Value>-8318</Value>
    </Annotation>
    <Annotation>
      <Name>http://schemas.microsoft.com/DataWarehouse/Designer/1.0:DiagramViewPortTop</Name>
      <Value>2656</Value>
    </Annotation>
    <Annotation>
      <Name>http://schemas.microsoft.com/DataWarehouse/Designer/1.0:DiagramBoundingLeft</Name>
      <Value>20</Value>
    </Annotation>
    <Annotation>
      <Name>http://schemas.microsoft.com/DataWarehouse/Designer/1.0:DiagramBoundingTop</Name>
      <Value>0</Value>
    </Annotation>
    <Annotation>
      <Name>http://schemas.microsoft.com/DataWarehouse/Designer/1.0:DiagramZoom</Name>
      <Value>75</Value>
    </Annotation>
  </Annotations>
  <LastProcessed>0001-01-01T00:00:00Z</LastProcessed>
  <State>Unprocessed</State>
  <Dimensions>
    <Dimension dwd:design-time-name="2ec95889-fd1a-4923-a220-5ad4ae6a345f">
      <ID>Tipi Ora</ID>
      <Name>Tipi Ora</Name>
      <DimensionID>Tipi Ora</DimensionID>
      <Attributes>
        <Attribute dwd:design-time-name="e85fd092-30e2-409f-830c-601592a31dfc">
          <AttributeID>Id Tipo Ora</AttributeID>
        </Attribute>
        <Attribute dwd:design-time-name="62983c5a-3357-4ba3-8936-d26f9b8a8d20">
          <AttributeID>Descrizione</AttributeID>
        </Attribute>
      </Attributes>
    </Dimension>
    <Dimension dwd:design-time-name="e2f7ecde-e8d2-4ff9-96af-59deb1277af1">
      <ID>Time</ID>
      <Name>Time</Name>
      <DimensionID>Time 1 1</DimensionID>
      <Attributes>
        <Attribute dwd:design-time-name="05ed6c26-23e9-428e-94ff-461fa68b1135">
          <AttributeID>PK Date</AttributeID>
        </Attribute>
        <Attribute dwd:design-time-name="d994ff8e-9711-425c-903d-0871ea64ff52">
          <AttributeID>Anno</AttributeID>
        </Attribute>
        <Attribute dwd:design-time-name="357d0e3d-1a5d-408e-acbe-487fb70f0bdf">
          <AttributeID>Mese</AttributeID>
        </Attribute>
      </Attributes>
      <Hierarchies>
        <Hierarchy dwd:design-time-name="6908a493-ac63-40ed-a95c-b1017f286f4c">
          <HierarchyID>Hierarchy</HierarchyID>
        </Hierarchy>
      </Hierarchies>
    </Dimension>
    <Dimension dwd:design-time-name="e1ab5e7a-53f7-4352-a2f5-c25140a8f622">
      <ID>Lavoratori</ID>
      <Name>Lavoratori</Name>
      <DimensionID>Lavoratori</DimensionID>
      <Attributes>
        <Attribute dwd:design-time-name="abb09cd9-8160-485b-8feb-ac25a3ef03e7">
          <AttributeID>Id Lavoratore</AttributeID>
        </Attribute>
        <Attribute dwd:design-time-name="dd8f9c1c-9d00-4bf4-8709-bb4d048ea536">
          <AttributeID>Provenienza</AttributeID>
        </Attribute>
        <Attribute dwd:design-time-name="dee422c7-0203-4e60-93cb-c6bb97e96af4">
          <AttributeID>Iban</AttributeID>
        </Attribute>
        <Attribute dwd:design-time-name="58a40874-5b77-4b74-a666-169d4cbdd721">
          <AttributeID>Provincia Residenza</AttributeID>
        </Attribute>
      </Attributes>
    </Dimension>
    <Dimension dwd:design-time-name="13b56a5d-a991-4c9a-ad4d-5e92f411f577">
      <ID>Imprese</ID>
      <Name>Imprese</Name>
      <DimensionID>Imprese</DimensionID>
      <Attributes>
        <Attribute dwd:design-time-name="a850d9de-2256-4321-a51b-c6203d789c13">
          <AttributeID>Id Impresa</AttributeID>
        </Attribute>
        <Attribute dwd:design-time-name="1eea7a66-c03b-4c47-b27f-645dfcf81a13">
          <AttributeID>Stato</AttributeID>
        </Attribute>
        <Attribute dwd:design-time-name="0804d3b9-c945-4e0f-a46c-bccfefbd5a27">
          <AttributeID>Dimensione</AttributeID>
        </Attribute>
        <Attribute dwd:design-time-name="5479b86d-e39b-4f8a-814d-fa341fcb5e6b">
          <AttributeID>Tipologia Impresa</AttributeID>
        </Attribute>
        <Attribute dwd:design-time-name="4df19f93-fdbb-443c-9e33-22f179c05649">
          <AttributeID>Tipo Impresa</AttributeID>
        </Attribute>
        <Attribute dwd:design-time-name="52953cfe-7e3d-426c-a638-e71ba94b692b">
          <AttributeID>Id Dimensione</AttributeID>
        </Attribute>
      </Attributes>
    </Dimension>
  </Dimensions>
  <MeasureGroups>
    <MeasureGroup dwd:design-time-name="89dcecf4-b5c0-4c52-9e25-1ede2c80a007">
      <ID>Imprese Denunce</ID>
      <Name>Imprese Denunce</Name>
      <CreatedTimestamp>0001-01-01T00:00:00Z</CreatedTimestamp>
      <LastSchemaUpdate>0001-01-01T00:00:00Z</LastSchemaUpdate>
      <LastProcessed>0001-01-01T00:00:00Z</LastProcessed>
      <State>Unprocessed</State>
      <Measures>
        <Measure dwd:design-time-name="48838949-8c91-4cc8-975b-582d0bdc2efe">
          <ID>Imprese Denunce Count</ID>
          <Name>Numero Imprese con  Denunce</Name>
          <AggregateFunction>Count</AggregateFunction>
          <Source dwd:design-time-name="61e3ae6b-deb4-4567-830f-3a3d75c0e889">
            <DataType>Integer</DataType>
            <DataSize>4</DataSize>
            <Source xsi:type="RowBinding" dwd:design-time-name="437d7106-cdab-4838-bc7c-681729270a59">
              <TableID>ImpreseDenunce</TableID>
            </Source>
          </Source>
        </Measure>
        <Measure dwd:design-time-name="94531289-c531-43e2-8034-f9ae0b2394d3">
          <ID>Maximum Data Inserimento Record 2</ID>
          <Name>Data aggiornamento imprese con denuncie</Name>
          <AggregateFunction>Max</AggregateFunction>
          <Source dwd:design-time-name="37c67d33-9547-41ec-b10f-f77d68bba08f">
            <DataType>Date</DataType>
            <Source xsi:type="ColumnBinding" dwd:design-time-name="e35d05e7-01dc-4945-b301-95ade98bcbf3">
              <TableID>ImpreseDenunce</TableID>
              <ColumnID>DataInserimentoRecord</ColumnID>
            </Source>
          </Source>
        </Measure>
      </Measures>
      <StorageMode>Molap</StorageMode>
      <ProcessingMode>Regular</ProcessingMode>
      <Dimensions>
        <Dimension xsi:type="RegularMeasureGroupDimension" dwd:design-time-name="d4f6667e-da3e-4423-b7de-6cf74e5f4e55">
          <CubeDimensionID>Imprese</CubeDimensionID>
          <Attributes>
            <Attribute dwd:design-time-name="b0010046-3a5e-471f-bec5-8753173f3675">
              <AttributeID>Id Impresa</AttributeID>
              <KeyColumns>
                <KeyColumn dwd:design-time-name="1833c716-f150-4b8b-a21e-1eba75bceba5">
                  <NullProcessing>UnknownMember</NullProcessing>
                  <DataType>Integer</DataType>
                  <Source xsi:type="ColumnBinding" dwd:design-time-name="d537dc6c-c7f0-4b85-a582-849cbcd99944">
                    <TableID>ImpreseDenunce</TableID>
                    <ColumnID>idImpresa</ColumnID>
                  </Source>
                </KeyColumn>
              </KeyColumns>
              <Type>Granularity</Type>
            </Attribute>
          </Attributes>
        </Dimension>
        <Dimension xsi:type="RegularMeasureGroupDimension" dwd:design-time-name="140545fb-5f0f-4832-8f77-ab71bdf2fa30">
          <CubeDimensionID>Time</CubeDimensionID>
          <Attributes>
            <Attribute dwd:design-time-name="ba807de8-3da2-4e59-af99-9747e255d157">
              <AttributeID>PK Date</AttributeID>
              <KeyColumns>
                <KeyColumn dwd:design-time-name="8df15199-0443-433c-8131-4d1dd4a6208d">
                  <NullProcessing>UnknownMember</NullProcessing>
                  <DataType>Date</DataType>
                  <Source xsi:type="ColumnBinding" dwd:design-time-name="26cc7ea6-4a85-4a00-b1e3-8dbf71c154e8">
                    <TableID>ImpreseDenunce</TableID>
                    <ColumnID>dataDenuncia</ColumnID>
                  </Source>
                </KeyColumn>
              </KeyColumns>
              <Type>Granularity</Type>
            </Attribute>
          </Attributes>
        </Dimension>
      </Dimensions>
      <Partitions />
    </MeasureGroup>
    <MeasureGroup dwd:design-time-name="f7063f41-266f-4272-9387-124a0da2cf0d">
      <ID>Rapporti Lavoratore Impresa Completi</ID>
      <Name>Rapporti Lavoratore Impresa Completi</Name>
      <CreatedTimestamp>0001-01-01T00:00:00Z</CreatedTimestamp>
      <LastSchemaUpdate>0001-01-01T00:00:00Z</LastSchemaUpdate>
      <LastProcessed>0001-01-01T00:00:00Z</LastProcessed>
      <State>Unprocessed</State>
      <Measures>
        <Measure dwd:design-time-name="947a784d-d424-4f96-9dcf-de0d99e5db6f">
          <ID>Rapporti Lavoratore Impresa Completi Count</ID>
          <Name>Numero lavoratori in denuncia</Name>
          <AggregateFunction>Count</AggregateFunction>
          <Source dwd:design-time-name="640b8a29-5204-4ec7-a23c-d80cfef910c6">
            <DataType>Integer</DataType>
            <DataSize>4</DataSize>
            <Source xsi:type="RowBinding" dwd:design-time-name="b204714b-9830-4fd0-bffb-d729837ce44c">
              <TableID>dbo_RapportiLavoratoreImpresaCompleti</TableID>
            </Source>
          </Source>
        </Measure>
        <Measure dwd:design-time-name="af6537c5-1954-43ed-9ff8-7f075c8696b0">
          <ID>Maximum Data Inserimento Record 1</ID>
          <Name>Data Aggiornamento lavoratori in denuncia</Name>
          <AggregateFunction>Max</AggregateFunction>
          <Source dwd:design-time-name="a4094cf1-e791-4dc4-82ba-7c6baa51557f">
            <DataType>Date</DataType>
            <Source xsi:type="ColumnBinding" dwd:design-time-name="ebebfc1b-a88a-43cf-8c5f-14c400ad50af">
              <TableID>dbo_RapportiLavoratoreImpresaCompleti</TableID>
              <ColumnID>dataInserimentoRecord</ColumnID>
            </Source>
          </Source>
        </Measure>
      </Measures>
      <StorageMode>Molap</StorageMode>
      <ProcessingMode>Regular</ProcessingMode>
      <Dimensions>
        <Dimension xsi:type="RegularMeasureGroupDimension" dwd:design-time-name="5215250f-af6f-47df-82d3-496d6397ec3f">
          <CubeDimensionID>Time</CubeDimensionID>
          <Attributes>
            <Attribute dwd:design-time-name="36940087-cb8d-41e7-a4c7-6d0280694482">
              <AttributeID>PK Date</AttributeID>
              <KeyColumns>
                <KeyColumn dwd:design-time-name="391ee75c-c2ae-44bd-9f13-a86054a2b42a">
                  <NullProcessing>UnknownMember</NullProcessing>
                  <DataType>Date</DataType>
                  <Source xsi:type="ColumnBinding" dwd:design-time-name="1cf3b07d-4dc7-47fd-a37b-7fb2e77b4d2c">
                    <TableID>dbo_RapportiLavoratoreImpresaCompleti</TableID>
                    <ColumnID>dataDenuncia</ColumnID>
                  </Source>
                </KeyColumn>
              </KeyColumns>
              <Type>Granularity</Type>
            </Attribute>
          </Attributes>
        </Dimension>
        <Dimension xsi:type="RegularMeasureGroupDimension" dwd:design-time-name="e0641fd3-23f5-4cb7-b482-77b1e1c0aa62">
          <CubeDimensionID>Lavoratori</CubeDimensionID>
          <Attributes>
            <Attribute dwd:design-time-name="32c219f4-5b64-40f8-9fe8-02811a48ae75">
              <AttributeID>Id Lavoratore</AttributeID>
              <KeyColumns>
                <KeyColumn dwd:design-time-name="2e9b3602-b86d-41a2-b808-d7f5c4736261">
                  <NullProcessing>UnknownMember</NullProcessing>
                  <DataType>Integer</DataType>
                  <Source xsi:type="ColumnBinding" dwd:design-time-name="80d74ac1-6456-401a-b5dd-75b92ee4543d">
                    <TableID>dbo_RapportiLavoratoreImpresaCompleti</TableID>
                    <ColumnID>idLavoratore</ColumnID>
                  </Source>
                </KeyColumn>
              </KeyColumns>
              <Type>Granularity</Type>
            </Attribute>
          </Attributes>
        </Dimension>
        <Dimension xsi:type="RegularMeasureGroupDimension" dwd:design-time-name="d515fe54-dd8b-48b6-950e-b07958979e4a">
          <CubeDimensionID>Imprese</CubeDimensionID>
          <Attributes>
            <Attribute dwd:design-time-name="e4fbc9c2-f8d1-4991-a83e-f19d219f30f3">
              <AttributeID>Id Impresa</AttributeID>
              <KeyColumns>
                <KeyColumn dwd:design-time-name="7ec77ee9-3389-4616-a28d-de74df19211b">
                  <NullProcessing>UnknownMember</NullProcessing>
                  <DataType>Integer</DataType>
                  <Source xsi:type="ColumnBinding" dwd:design-time-name="ebc375fb-25b1-41fa-8fbd-9071a510a6bf">
                    <TableID>dbo_RapportiLavoratoreImpresaCompleti</TableID>
                    <ColumnID>idImpresa</ColumnID>
                  </Source>
                </KeyColumn>
              </KeyColumns>
              <Type>Granularity</Type>
            </Attribute>
          </Attributes>
        </Dimension>
      </Dimensions>
      <Partitions />
    </MeasureGroup>
    <MeasureGroup dwd:design-time-name="ed9b44b8-54c5-400b-8d59-d6809b2d62ae">
      <ID>Ore Denunciate Complete</ID>
      <Name>Ore Denunciate Complete</Name>
      <CreatedTimestamp>0001-01-01T00:00:00Z</CreatedTimestamp>
      <LastSchemaUpdate>0001-01-01T00:00:00Z</LastSchemaUpdate>
      <LastProcessed>0001-01-01T00:00:00Z</LastProcessed>
      <State>Unprocessed</State>
      <Measures>
        <Measure dwd:design-time-name="37a23f13-a928-4780-aa76-784b5dba4602">
          <ID>Ore Dichiarate</ID>
          <Name>Ore Dichiarate</Name>
          <Source dwd:design-time-name="7ec51e32-33b9-4eed-9adc-350c8a6ff64d">
            <DataType>Double</DataType>
            <Source xsi:type="ColumnBinding" dwd:design-time-name="bd28dc52-e6ac-4cac-bb24-51e320653ca7">
              <TableID>dbo_OreDenunciateComplete</TableID>
              <ColumnID>oreDichiarate</ColumnID>
            </Source>
          </Source>
        </Measure>
        <Measure dwd:design-time-name="b2325642-6d23-4df9-8043-0d046a5a5aeb">
          <ID>Ore Denunciate Complete Count</ID>
          <Name>Ore Denunciate</Name>
          <AggregateFunction>Count</AggregateFunction>
          <Source dwd:design-time-name="68692cca-7f50-4abe-90b1-03a1fffa3d14">
            <DataType>Integer</DataType>
            <DataSize>4</DataSize>
            <Source xsi:type="RowBinding" dwd:design-time-name="27dac517-950e-4b74-ae7f-8e0f79356136">
              <TableID>dbo_OreDenunciateComplete</TableID>
            </Source>
          </Source>
        </Measure>
        <Measure dwd:design-time-name="ee82d675-6ab5-4abf-9ce3-e44ee85d448d">
          <ID>Maximum Data Inserimento Record</ID>
          <Name>Data Aggiornamento Ore Denunciate</Name>
          <AggregateFunction>Max</AggregateFunction>
          <Source dwd:design-time-name="e952042a-e9b1-4637-a161-3df8a04d2013">
            <DataType>Date</DataType>
            <Source xsi:type="ColumnBinding" dwd:design-time-name="46c19bc1-385a-4a8e-b3ec-658b200ecba5">
              <TableID>dbo_OreDenunciateComplete</TableID>
              <ColumnID>dataInserimentoRecord</ColumnID>
            </Source>
          </Source>
        </Measure>
      </Measures>
      <StorageMode>Molap</StorageMode>
      <ProcessingMode>Regular</ProcessingMode>
      <Dimensions>
        <Dimension xsi:type="RegularMeasureGroupDimension" dwd:design-time-name="b8c95944-3028-4c1c-a388-ad4b14832bed">
          <CubeDimensionID>Tipi Ora</CubeDimensionID>
          <Attributes>
            <Attribute dwd:design-time-name="81d183e7-6a08-460d-bf54-e44b738e1c2a">
              <AttributeID>Id Tipo Ora</AttributeID>
              <KeyColumns>
                <KeyColumn dwd:design-time-name="c15e5938-8901-4dee-92bb-2fee9aac52d7">
                  <DataType>WChar</DataType>
                  <DataSize>3</DataSize>
                  <Source xsi:type="ColumnBinding" dwd:design-time-name="84a0f67b-61b6-44b7-8e3c-b0931354e857">
                    <TableID>dbo_OreDenunciateComplete</TableID>
                    <ColumnID>idTipoOra</ColumnID>
                  </Source>
                </KeyColumn>
              </KeyColumns>
              <Type>Granularity</Type>
            </Attribute>
          </Attributes>
        </Dimension>
        <Dimension xsi:type="RegularMeasureGroupDimension" dwd:design-time-name="0b4ab144-f61e-4075-a2d7-90570a6fab1c">
          <CubeDimensionID>Time</CubeDimensionID>
          <Attributes>
            <Attribute dwd:design-time-name="86b305c3-86dc-4cd2-b78b-9617650c7ac5">
              <AttributeID>PK Date</AttributeID>
              <KeyColumns>
                <KeyColumn dwd:design-time-name="512ed257-73cb-4780-ba8c-d81b6c795fd7">
                  <NullProcessing>UnknownMember</NullProcessing>
                  <DataType>Date</DataType>
                  <Source xsi:type="ColumnBinding" dwd:design-time-name="96472866-533d-462e-af90-0932e3aa10df">
                    <TableID>dbo_OreDenunciateComplete</TableID>
                    <ColumnID>dataDenormalizzazione</ColumnID>
                  </Source>
                </KeyColumn>
              </KeyColumns>
              <Type>Granularity</Type>
            </Attribute>
          </Attributes>
        </Dimension>
        <Dimension xsi:type="RegularMeasureGroupDimension" dwd:design-time-name="7ead78ab-2d40-43ab-a3fa-0d0e07f00c55">
          <CubeDimensionID>Lavoratori</CubeDimensionID>
          <Attributes>
            <Attribute dwd:design-time-name="f44326fb-b0d3-42e9-89a8-52e3a372689a">
              <AttributeID>Id Lavoratore</AttributeID>
              <KeyColumns>
                <KeyColumn dwd:design-time-name="5fe52d54-e939-4860-b73c-1afc336773b8">
                  <NullProcessing>UnknownMember</NullProcessing>
                  <DataType>Integer</DataType>
                  <Source xsi:type="ColumnBinding" dwd:design-time-name="2f7b26be-49e0-4a7a-ace9-7e7ae3f17c17">
                    <TableID>dbo_OreDenunciateComplete</TableID>
                    <ColumnID>idLavoratore</ColumnID>
                  </Source>
                </KeyColumn>
              </KeyColumns>
              <Type>Granularity</Type>
            </Attribute>
          </Attributes>
        </Dimension>
        <Dimension xsi:type="RegularMeasureGroupDimension" dwd:design-time-name="dd647243-f0dd-4a0c-99bc-6b694665fdf5">
          <CubeDimensionID>Imprese</CubeDimensionID>
          <Attributes>
            <Attribute dwd:design-time-name="bd05b3bb-e435-4820-affa-239f9a3abeaa">
              <AttributeID>Id Impresa</AttributeID>
              <KeyColumns>
                <KeyColumn dwd:design-time-name="8d44a162-5785-4548-aed1-06a1d69d575b">
                  <NullProcessing>UnknownMember</NullProcessing>
                  <DataType>Integer</DataType>
                  <Source xsi:type="ColumnBinding" dwd:design-time-name="25973251-ec4a-4177-92bc-23fc76458242">
                    <TableID>dbo_OreDenunciateComplete</TableID>
                    <ColumnID>idImpresa</ColumnID>
                  </Source>
                </KeyColumn>
              </KeyColumns>
              <Type>Granularity</Type>
            </Attribute>
          </Attributes>
        </Dimension>
      </Dimensions>
      <Partitions />
    </MeasureGroup>
  </MeasureGroups>
  <Source dwd:design-time-name="04091239-470e-4c94-9dee-e866742ba8e7">
    <DataSourceViewID>Massa Salariale</DataSourceViewID>
  </Source>
</Cube>