﻿<Cube xmlns:xsd="http://www.w3.org/2001/XMLSchema" xmlns:xsi="http://www.w3.org/2001/XMLSchema-instance" xmlns:ddl2="http://schemas.microsoft.com/analysisservices/2003/engine/2" xmlns:ddl2_2="http://schemas.microsoft.com/analysisservices/2003/engine/2/2" xmlns:ddl100_100="http://schemas.microsoft.com/analysisservices/2008/engine/100/100" xmlns:ddl200="http://schemas.microsoft.com/analysisservices/2010/engine/200" xmlns:ddl200_200="http://schemas.microsoft.com/analysisservices/2010/engine/200/200" xmlns:dwd="http://schemas.microsoft.com/DataWarehouse/Designer/1.0" dwd:design-time-name="990ebe98-cb10-4782-9f16-a7a84f90d8c2" xmlns="http://schemas.microsoft.com/analysisservices/2003/engine">
  <ID>Prestazioni</ID>
  <Name>Prestazioni</Name>
  <CreatedTimestamp>0001-01-01T00:00:00Z</CreatedTimestamp>
  <LastSchemaUpdate>0001-01-01T00:00:00Z</LastSchemaUpdate>
  <Annotations>
    <Annotation>
      <Name>http://schemas.microsoft.com/DataWarehouse/Designer/1.0:DiagramLayout</Name>
      <Value>
        <dds xmlns="">
          <diagram fontclsid="{0BE35203-8F91-11CE-9DE3-00AA004BB851}" mouseiconclsid="{0BE35204-8F91-11CE-9DE3-00AA004BB851}" defaultlayout="MSDDS.Rectilinear" defaultlineroute="MSDDS.Rectilinear" version="7" nextobject="56" scale="100" pagebreakanchorx="0" pagebreakanchory="0" pagebreaksizex="0" pagebreaksizey="0" scrollleft="6134" scrolltop="8187" gridx="150" gridy="150" marginx="5000" marginy="5000" zoom="100" x="22913" y="12383" backcolor="15334399" defaultpersistence="2" PrintPageNumbersMode="3" PrintMarginTop="0" PrintMarginBottom="635" PrintMarginLeft="0" PrintMarginRight="0" marqueeselectionmode="0" mousepointer="0" snaptogrid="0" autotypeannotation="1" showscrollbars="1" viewpagebreaks="0" donotforceconnectorsbehindshapes="1" backpictureclsid="{00000000-0000-0000-0000-000000000000}">
            <font>
              <ddsxmlobjectstreamwrapper binary="01000000900144420100065461686f6d61" />
            </font>
            <mouseicon>
              <ddsxmlobjectstreamwrapper binary="6c74000000000000" />
            </mouseicon>
          </diagram>
          <layoutmanager>
            <ddsxmlobj />
          </layoutmanager>
          <ddscontrol controlprogid="DdsShapes.DdsObjectManagedBridge.2" tooltip="TipiPrestazione" left="7235" top="32624" logicalid="28" controlid="1" masterid="0" hint1="0" hint2="0" width="4101" height="2725" noresize="0" nomove="0" nodefaultattachpoints="0" autodrag="1" usedefaultiddshape="1" selectable="1" showselectionhandles="1" allownudging="1" isannotation="0" dontautolayout="0" groupcollapsed="0" tabstop="1" visible="1" snaptogrid="0">
            <control>
              <ddsxmlobjectstreaminitwrapper binary="0008000005100000a50a0000" />
            </control>
            <layoutobject>
              <ddsxmlobj>
                <property name="LogicalObject" value="dbo_TipiPrestazione" vartype="8" />
              </ddsxmlobj>
            </layoutobject>
            <shape groupshapeid="0" groupnode="0" />
          </ddscontrol>
          <ddscontrol controlprogid="DdsShapes.DdsObjectManagedBridge.2" tooltip="PrestazioniStatiDomanda" left="14831" top="20944" logicalid="29" controlid="2" masterid="0" hint1="0" hint2="0" width="4630" height="1879" noresize="0" nomove="0" nodefaultattachpoints="0" autodrag="1" usedefaultiddshape="1" selectable="1" showselectionhandles="1" allownudging="1" isannotation="0" dontautolayout="0" groupcollapsed="0" tabstop="1" visible="1" snaptogrid="0">
            <control>
              <ddsxmlobjectstreaminitwrapper binary="000800001612000057070000" />
            </control>
            <layoutobject>
              <ddsxmlobj>
                <property name="LogicalObject" value="dbo_PrestazioniStatiDomanda" vartype="8" />
              </ddsxmlobj>
            </layoutobject>
            <shape groupshapeid="0" groupnode="0" />
          </ddscontrol>
          <ddscontrol controlprogid="DdsShapes.DdsObjectManagedBridge.2" tooltip="TipiImpresa" left="30981" top="26361" logicalid="30" controlid="3" masterid="0" hint1="0" hint2="0" width="4101" height="2725" noresize="0" nomove="0" nodefaultattachpoints="0" autodrag="1" usedefaultiddshape="1" selectable="1" showselectionhandles="1" allownudging="1" isannotation="0" dontautolayout="0" groupcollapsed="0" tabstop="1" visible="1" snaptogrid="0">
            <control>
              <ddsxmlobjectstreaminitwrapper binary="0008000005100000a50a0000" />
            </control>
            <layoutobject>
              <ddsxmlobj>
                <property name="LogicalObject" value="dbo_TipiImpresa" vartype="8" />
              </ddsxmlobj>
            </layoutobject>
            <shape groupshapeid="0" groupnode="0" />
          </ddscontrol>
          <ddscontrol controlprogid="DdsShapes.DdsObjectManagedBridge.2" tooltip="Imprese" left="21861" top="25224" logicalid="31" controlid="4" masterid="0" hint1="0" hint2="0" width="6720" height="5000" noresize="0" nomove="0" nodefaultattachpoints="0" autodrag="1" usedefaultiddshape="1" selectable="1" showselectionhandles="1" allownudging="1" isannotation="0" dontautolayout="0" groupcollapsed="0" tabstop="1" visible="1" snaptogrid="0">
            <control>
              <ddsxmlobjectstreaminitwrapper binary="00080000401a000088130000" />
            </control>
            <layoutobject>
              <ddsxmlobj>
                <property name="LogicalObject" value="Imprese" vartype="8" />
              </ddsxmlobj>
            </layoutobject>
            <shape groupshapeid="0" groupnode="0" />
          </ddscontrol>
          <ddscontrol controlprogid="DdsShapes.DdsObjectManagedBridge.2" tooltip="Prestazioni" left="15354" top="7572" logicalid="32" controlid="5" masterid="0" hint1="0" hint2="0" width="4392" height="5000" noresize="0" nomove="0" nodefaultattachpoints="0" autodrag="1" usedefaultiddshape="1" selectable="1" showselectionhandles="1" allownudging="1" isannotation="0" dontautolayout="0" groupcollapsed="0" tabstop="1" visible="1" snaptogrid="0">
            <control>
              <ddsxmlobjectstreaminitwrapper binary="000800002811000088130000" />
            </control>
            <layoutobject>
              <ddsxmlobj>
                <property name="LogicalObject" value="Prestazioni" vartype="8" />
              </ddsxmlobj>
            </layoutobject>
            <shape groupshapeid="0" groupnode="0" />
          </ddscontrol>
          <ddscontrol controlprogid="DdsShapes.DdsObjectManagedBridge.2" tooltip="PrestazioniComplete" left="20211" top="35186" logicalid="33" controlid="6" masterid="0" hint1="0" hint2="0" width="3413" height="5000" noresize="0" nomove="0" nodefaultattachpoints="0" autodrag="1" usedefaultiddshape="1" selectable="1" showselectionhandles="1" allownudging="1" isannotation="0" dontautolayout="0" groupcollapsed="0" tabstop="1" visible="1" snaptogrid="0">
            <control>
              <ddsxmlobjectstreaminitwrapper binary="00080000550d000088130000" />
            </control>
            <layoutobject>
              <ddsxmlobj>
                <property name="LogicalObject" value="PrestazioniComplete" vartype="8" />
              </ddsxmlobj>
            </layoutobject>
            <shape groupshapeid="0" groupnode="0" />
          </ddscontrol>
          <ddscontrol controlprogid="DdsShapes.DdsObjectManagedBridge.2" tooltip="PrestazioiDomande" left="20" top="26360" logicalid="34" controlid="7" masterid="0" hint1="0" hint2="0" width="4815" height="5000" noresize="0" nomove="0" nodefaultattachpoints="0" autodrag="1" usedefaultiddshape="1" selectable="1" showselectionhandles="1" allownudging="1" isannotation="0" dontautolayout="0" groupcollapsed="0" tabstop="1" visible="1" snaptogrid="0">
            <control>
              <ddsxmlobjectstreaminitwrapper binary="00080000cf12000088130000" />
            </control>
            <layoutobject>
              <ddsxmlobj>
                <property name="LogicalObject" value="PrestazioiDomande" vartype="8" />
              </ddsxmlobj>
            </layoutobject>
            <shape groupshapeid="0" groupnode="0" />
          </ddscontrol>
          <ddscontrol controlprogid="DdsShapes.DdsObjectManagedBridge.2" tooltip="Lavoratori" left="8753" top="14972" logicalid="35" controlid="8" masterid="0" hint1="0" hint2="0" width="3678" height="3572" noresize="0" nomove="0" nodefaultattachpoints="0" autodrag="1" usedefaultiddshape="1" selectable="1" showselectionhandles="1" allownudging="1" isannotation="0" dontautolayout="0" groupcollapsed="0" tabstop="1" visible="1" snaptogrid="0">
            <control>
              <ddsxmlobjectstreaminitwrapper binary="000800005e0e0000f40d0000" />
            </control>
            <layoutobject>
              <ddsxmlobj>
                <property name="LogicalObject" value="Lavoratori" vartype="8" />
              </ddsxmlobj>
            </layoutobject>
            <shape groupshapeid="0" groupnode="0" />
          </ddscontrol>
          <ddscontrol controlprogid="DdsShapes.DdsObjectManagedBridge.2" tooltip="Time" left="13736" top="37749" logicalid="36" controlid="9" masterid="0" hint1="0" hint2="0" width="4075" height="5000" noresize="0" nomove="0" nodefaultattachpoints="0" autodrag="1" usedefaultiddshape="1" selectable="1" showselectionhandles="1" allownudging="1" isannotation="0" dontautolayout="0" groupcollapsed="0" tabstop="1" visible="1" snaptogrid="0">
            <control>
              <ddsxmlobjectstreaminitwrapper binary="00080000eb0f000088130000" />
            </control>
            <layoutobject>
              <ddsxmlobj>
                <property name="LogicalObject" value="dbo_Time" vartype="8" />
              </ddsxmlobj>
            </layoutobject>
            <shape groupshapeid="0" groupnode="0" />
          </ddscontrol>
          <ddscontrol controlprogid="DdsShapes.DdsObjectManagedBridge.2" tooltip="ImpreseStorico" left="20" top="0" logicalid="37" controlid="10" masterid="0" hint1="0" hint2="0" width="4339" height="3572" noresize="0" nomove="0" nodefaultattachpoints="0" autodrag="1" usedefaultiddshape="1" selectable="1" showselectionhandles="1" allownudging="1" isannotation="0" dontautolayout="0" groupcollapsed="0" tabstop="1" visible="1" snaptogrid="0">
            <control>
              <ddsxmlobjectstreaminitwrapper binary="00080000f3100000f40d0000" />
            </control>
            <layoutobject>
              <ddsxmlobj>
                <property name="LogicalObject" value="dbo_Imprese" vartype="8" />
              </ddsxmlobj>
            </layoutobject>
            <shape groupshapeid="0" groupnode="0" />
          </ddscontrol>
          <ddscontrol controlprogid="MSDDS.Polyline" left="17511" top="37936" logicalid="38" controlid="11" masterid="0" hint1="0" hint2="0" width="3000" height="2713" noresize="0" nomove="0" nodefaultattachpoints="1" autodrag="0" usedefaultiddshape="0" selectable="1" showselectionhandles="0" allownudging="1" isannotation="0" dontautolayout="0" groupcollapsed="0" tabstop="1" visible="1" snaptogrid="0">
            <control>
              <ddsxmlobj>
                <polyline endtypedst="6" endtypesrc="3" usercolor="0" linestyle="0" linerender="1" customendtypedstid="0" customendtypesrcid="0" adornsvisible="1" />
              </ddsxmlobj>
            </control>
            <layoutobject>
              <ddsxmlobj>
                <property name="LogicalObject" value="dataSet.Relations[PrestazioniComplete-Time]" vartype="8" />
                <property name="Virtual" value="0" vartype="11" />
                <property name="VisibleAP" value="0" vartype="3" />
              </ddsxmlobj>
            </layoutobject>
            <connector lineroutestyle="MSDDS.Rectilinear" sourceid="9" destid="6" sourceattachpoint="23" destattachpoint="20" segmenteditmode="0" bendpointeditmode="0" bendpointvisibility="0" relatedid="0" virtual="0">
              <point x="17811" y="40249" />
              <point x="19011" y="40249" />
              <point x="19011" y="38236" />
              <point x="20211" y="38236" />
            </connector>
          </ddscontrol>
          <ddscontrol controlprogid="MSDDS.Polyline" left="15924" top="12272" logicalid="39" controlid="12" masterid="0" hint1="0" hint2="0" width="1926" height="25977" noresize="0" nomove="0" nodefaultattachpoints="1" autodrag="0" usedefaultiddshape="0" selectable="1" showselectionhandles="0" allownudging="1" isannotation="0" dontautolayout="0" groupcollapsed="0" tabstop="1" visible="1" snaptogrid="0">
            <control>
              <ddsxmlobj>
                <polyline endtypedst="6" endtypesrc="3" usercolor="0" linestyle="0" linerender="1" customendtypedstid="0" customendtypesrcid="0" adornsvisible="1" />
              </ddsxmlobj>
            </control>
            <layoutobject>
              <ddsxmlobj>
                <property name="LogicalObject" value="dataSet.Relations[Prestazioni-Time]" vartype="8" />
                <property name="Virtual" value="0" vartype="11" />
                <property name="VisibleAP" value="0" vartype="3" />
              </ddsxmlobj>
            </layoutobject>
            <connector lineroutestyle="MSDDS.Rectilinear" sourceid="9" destid="5" sourceattachpoint="8" destattachpoint="7" segmenteditmode="0" bendpointeditmode="0" bendpointvisibility="0" relatedid="0" virtual="0">
              <point x="16323" y="37749" />
              <point x="16323" y="25161" />
              <point x="17550" y="25161" />
              <point x="17550" y="12572" />
            </connector>
          </ddscontrol>
          <ddscontrol controlprogid="MSDDS.Polyline" left="4535" top="29660" logicalid="40" controlid="13" masterid="0" hint1="0" hint2="0" width="9501" height="10989" noresize="0" nomove="0" nodefaultattachpoints="1" autodrag="0" usedefaultiddshape="0" selectable="1" showselectionhandles="0" allownudging="1" isannotation="0" dontautolayout="0" groupcollapsed="0" tabstop="1" visible="1" snaptogrid="0">
            <control>
              <ddsxmlobj>
                <polyline endtypedst="6" endtypesrc="3" usercolor="0" linestyle="0" linerender="1" customendtypedstid="0" customendtypesrcid="0" adornsvisible="1" />
              </ddsxmlobj>
            </control>
            <layoutobject>
              <ddsxmlobj>
                <property name="LogicalObject" value="dataSet.Relations[PrestazioiDomande-Time]" vartype="8" />
                <property name="Virtual" value="0" vartype="11" />
                <property name="VisibleAP" value="0" vartype="3" />
              </ddsxmlobj>
            </layoutobject>
            <connector lineroutestyle="MSDDS.Rectilinear" sourceid="9" destid="7" sourceattachpoint="22" destattachpoint="31" segmenteditmode="0" bendpointeditmode="0" bendpointvisibility="0" relatedid="0" virtual="0">
              <point x="13736" y="40249" />
              <point x="9286" y="40249" />
              <point x="9286" y="29960" />
              <point x="4835" y="29960" />
            </connector>
          </ddscontrol>
          <ddscontrol controlprogid="MSDDS.Polyline" left="14274" top="12272" logicalid="41" controlid="14" masterid="0" hint1="0" hint2="0" width="3026" height="25977" noresize="0" nomove="0" nodefaultattachpoints="1" autodrag="0" usedefaultiddshape="0" selectable="1" showselectionhandles="0" allownudging="1" isannotation="0" dontautolayout="0" groupcollapsed="0" tabstop="1" visible="1" snaptogrid="0">
            <control>
              <ddsxmlobj>
                <polyline endtypedst="6" endtypesrc="3" usercolor="0" linestyle="0" linerender="1" customendtypedstid="0" customendtypesrcid="0" adornsvisible="1" />
              </ddsxmlobj>
            </control>
            <layoutobject>
              <ddsxmlobj>
                <property name="LogicalObject" value="dataSet.Relations[Prestazioni-Time1]" vartype="8" />
                <property name="Virtual" value="0" vartype="11" />
                <property name="VisibleAP" value="0" vartype="3" />
              </ddsxmlobj>
            </layoutobject>
            <connector lineroutestyle="MSDDS.Rectilinear" sourceid="9" destid="5" sourceattachpoint="2" destattachpoint="5" segmenteditmode="0" bendpointeditmode="0" bendpointvisibility="0" relatedid="0" virtual="0">
              <point x="14673" y="37749" />
              <point x="14673" y="25161" />
              <point x="17000" y="25161" />
              <point x="17000" y="12572" />
            </connector>
          </ddscontrol>
          <ddscontrol controlprogid="MSDDS.Polyline" left="10193" top="12272" logicalid="42" controlid="15" masterid="0" hint1="0" hint2="0" width="6007" height="3200" noresize="0" nomove="0" nodefaultattachpoints="1" autodrag="0" usedefaultiddshape="0" selectable="1" showselectionhandles="0" allownudging="1" isannotation="0" dontautolayout="0" groupcollapsed="0" tabstop="1" visible="1" snaptogrid="0">
            <control>
              <ddsxmlobj>
                <polyline endtypedst="6" endtypesrc="3" usercolor="0" linestyle="0" linerender="1" customendtypedstid="0" customendtypesrcid="0" adornsvisible="1" />
              </ddsxmlobj>
            </control>
            <layoutobject>
              <ddsxmlobj>
                <property name="LogicalObject" value="dataSet.Relations[Prestazioni-Lavoratori]" vartype="8" />
                <property name="Virtual" value="0" vartype="11" />
                <property name="VisibleAP" value="0" vartype="3" />
              </ddsxmlobj>
            </layoutobject>
            <connector lineroutestyle="MSDDS.Rectilinear" sourceid="8" destid="5" sourceattachpoint="6" destattachpoint="1" segmenteditmode="0" bendpointeditmode="0" bendpointvisibility="0" relatedid="0" virtual="0">
              <point x="10592" y="14972" />
              <point x="10592" y="13772" />
              <point x="15900" y="13772" />
              <point x="15900" y="12572" />
            </connector>
          </ddscontrol>
          <ddscontrol controlprogid="MSDDS.Polyline" left="10193" top="18045" logicalid="43" controlid="16" masterid="0" hint1="0" hint2="0" width="11474" height="17441" noresize="0" nomove="0" nodefaultattachpoints="1" autodrag="0" usedefaultiddshape="0" selectable="1" showselectionhandles="0" allownudging="1" isannotation="0" dontautolayout="0" groupcollapsed="0" tabstop="1" visible="1" snaptogrid="0">
            <control>
              <ddsxmlobj>
                <polyline endtypedst="6" endtypesrc="3" usercolor="0" linestyle="0" linerender="1" customendtypedstid="0" customendtypesrcid="0" adornsvisible="1" />
              </ddsxmlobj>
            </control>
            <layoutobject>
              <ddsxmlobj>
                <property name="LogicalObject" value="dataSet.Relations[PrestazioniComplete-Lavoratori]" vartype="8" />
                <property name="Virtual" value="0" vartype="11" />
                <property name="VisibleAP" value="0" vartype="3" />
              </ddsxmlobj>
            </layoutobject>
            <connector lineroutestyle="MSDDS.Rectilinear" sourceid="8" destid="6" sourceattachpoint="7" destattachpoint="2" segmenteditmode="0" bendpointeditmode="0" bendpointvisibility="0" relatedid="0" virtual="0">
              <point x="10592" y="18544" />
              <point x="10592" y="26865" />
              <point x="21367" y="26865" />
              <point x="21367" y="35186" />
            </connector>
          </ddscontrol>
          <ddscontrol controlprogid="MSDDS.Polyline" left="4535" top="16359" logicalid="44" controlid="17" masterid="0" hint1="0" hint2="0" width="4518" height="11701" noresize="0" nomove="0" nodefaultattachpoints="1" autodrag="0" usedefaultiddshape="0" selectable="1" showselectionhandles="0" allownudging="1" isannotation="0" dontautolayout="0" groupcollapsed="0" tabstop="1" visible="1" snaptogrid="0">
            <control>
              <ddsxmlobj>
                <polyline endtypedst="6" endtypesrc="3" usercolor="0" linestyle="0" linerender="1" customendtypedstid="0" customendtypesrcid="0" adornsvisible="1" />
              </ddsxmlobj>
            </control>
            <layoutobject>
              <ddsxmlobj>
                <property name="LogicalObject" value="dataSet.Relations[PrestazioiDomande-Lavoratori]" vartype="8" />
                <property name="Virtual" value="0" vartype="11" />
                <property name="VisibleAP" value="0" vartype="3" />
              </ddsxmlobj>
            </layoutobject>
            <connector lineroutestyle="MSDDS.Rectilinear" sourceid="8" destid="7" sourceattachpoint="20" destattachpoint="23" segmenteditmode="0" bendpointeditmode="0" bendpointvisibility="0" relatedid="0" virtual="0">
              <point x="8753" y="16758" />
              <point x="6794" y="16758" />
              <point x="6794" y="27760" />
              <point x="4835" y="27760" />
            </connector>
          </ddscontrol>
          <ddscontrol controlprogid="MSDDS.Polyline" left="4535" top="27325" logicalid="45" controlid="18" masterid="0" hint1="0" hint2="0" width="17626" height="1835" noresize="0" nomove="0" nodefaultattachpoints="1" autodrag="0" usedefaultiddshape="0" selectable="1" showselectionhandles="0" allownudging="1" isannotation="0" dontautolayout="0" groupcollapsed="0" tabstop="1" visible="1" snaptogrid="0">
            <control>
              <ddsxmlobj>
                <polyline endtypedst="6" endtypesrc="3" usercolor="0" linestyle="0" linerender="1" customendtypedstid="0" customendtypesrcid="0" adornsvisible="1" />
              </ddsxmlobj>
            </control>
            <layoutobject>
              <ddsxmlobj>
                <property name="LogicalObject" value="dataSet.Relations[PrestazioiDomande-Imprese]" vartype="8" />
                <property name="Virtual" value="0" vartype="11" />
                <property name="VisibleAP" value="0" vartype="3" />
              </ddsxmlobj>
            </layoutobject>
            <connector lineroutestyle="MSDDS.Rectilinear" sourceid="4" destid="7" sourceattachpoint="30" destattachpoint="27" segmenteditmode="0" bendpointeditmode="0" bendpointvisibility="0" relatedid="0" virtual="0">
              <point x="21861" y="27724" />
              <point x="13348" y="27724" />
              <point x="13348" y="28860" />
              <point x="4835" y="28860" />
            </connector>
          </ddscontrol>
          <ddscontrol controlprogid="MSDDS.Polyline" left="18350" top="12272" logicalid="46" controlid="19" masterid="0" hint1="0" hint2="0" width="7271" height="13452" noresize="0" nomove="0" nodefaultattachpoints="1" autodrag="0" usedefaultiddshape="0" selectable="1" showselectionhandles="0" allownudging="1" isannotation="0" dontautolayout="0" groupcollapsed="0" tabstop="1" visible="1" snaptogrid="0">
            <control>
              <ddsxmlobj>
                <polyline endtypedst="6" endtypesrc="3" usercolor="0" linestyle="0" linerender="1" customendtypedstid="0" customendtypesrcid="0" adornsvisible="1" />
              </ddsxmlobj>
            </control>
            <layoutobject>
              <ddsxmlobj>
                <property name="LogicalObject" value="dataSet.Relations[Prestazioni-Imprese]" vartype="8" />
                <property name="Virtual" value="0" vartype="11" />
                <property name="VisibleAP" value="0" vartype="3" />
              </ddsxmlobj>
            </layoutobject>
            <connector lineroutestyle="MSDDS.Rectilinear" sourceid="4" destid="5" sourceattachpoint="10" destattachpoint="11" segmenteditmode="0" bendpointeditmode="0" bendpointvisibility="0" relatedid="0" virtual="0">
              <point x="25221" y="25224" />
              <point x="25221" y="18898" />
              <point x="18650" y="18898" />
              <point x="18650" y="12572" />
            </connector>
          </ddscontrol>
          <ddscontrol controlprogid="MSDDS.Polyline" left="22167" top="29725" logicalid="47" controlid="20" masterid="0" hint1="0" hint2="0" width="3454" height="5761" noresize="0" nomove="0" nodefaultattachpoints="1" autodrag="0" usedefaultiddshape="0" selectable="1" showselectionhandles="0" allownudging="1" isannotation="0" dontautolayout="0" groupcollapsed="0" tabstop="1" visible="1" snaptogrid="0">
            <control>
              <ddsxmlobj>
                <polyline endtypedst="6" endtypesrc="3" usercolor="0" linestyle="0" linerender="1" customendtypedstid="0" customendtypesrcid="0" adornsvisible="1" />
              </ddsxmlobj>
            </control>
            <layoutobject>
              <ddsxmlobj>
                <property name="LogicalObject" value="dataSet.Relations[PrestazioniComplete-Imprese]" vartype="8" />
                <property name="Virtual" value="0" vartype="11" />
                <property name="VisibleAP" value="0" vartype="3" />
              </ddsxmlobj>
            </layoutobject>
            <connector lineroutestyle="MSDDS.Rectilinear" sourceid="4" destid="6" sourceattachpoint="11" destattachpoint="6" segmenteditmode="0" bendpointeditmode="0" bendpointvisibility="0" relatedid="0" virtual="0">
              <point x="25221" y="30224" />
              <point x="25221" y="32705" />
              <point x="22467" y="32705" />
              <point x="22467" y="35186" />
            </connector>
          </ddscontrol>
          <ddscontrol controlprogid="MSDDS.Polyline" left="28281" top="27324" logicalid="48" controlid="21" masterid="0" hint1="0" hint2="0" width="3000" height="799" noresize="0" nomove="0" nodefaultattachpoints="1" autodrag="0" usedefaultiddshape="0" selectable="1" showselectionhandles="0" allownudging="1" isannotation="0" dontautolayout="0" groupcollapsed="0" tabstop="1" visible="1" snaptogrid="0">
            <control>
              <ddsxmlobj>
                <polyline endtypedst="6" endtypesrc="3" usercolor="0" linestyle="0" linerender="1" customendtypedstid="0" customendtypesrcid="0" adornsvisible="1" />
              </ddsxmlobj>
            </control>
            <layoutobject>
              <ddsxmlobj>
                <property name="LogicalObject" value="dataSet.Relations[Imprese-TipiImpresa]" vartype="8" />
                <property name="Virtual" value="0" vartype="11" />
                <property name="VisibleAP" value="0" vartype="3" />
              </ddsxmlobj>
            </layoutobject>
            <connector lineroutestyle="MSDDS.Rectilinear" sourceid="3" destid="4" sourceattachpoint="18" destattachpoint="31" segmenteditmode="0" bendpointeditmode="0" bendpointvisibility="0" relatedid="0" virtual="0">
              <point x="30981" y="27723" />
              <point x="29781" y="27723" />
              <point x="29781" y="27724" />
              <point x="28581" y="27724" />
            </connector>
          </ddscontrol>
          <ddscontrol controlprogid="MSDDS.Polyline" left="4535" top="29110" logicalid="49" controlid="22" masterid="0" hint1="0" hint2="0" width="3000" height="5276" noresize="0" nomove="0" nodefaultattachpoints="1" autodrag="0" usedefaultiddshape="0" selectable="1" showselectionhandles="0" allownudging="1" isannotation="0" dontautolayout="0" groupcollapsed="0" tabstop="1" visible="1" snaptogrid="0">
            <control>
              <ddsxmlobj>
                <polyline endtypedst="6" endtypesrc="3" usercolor="0" linestyle="0" linerender="1" customendtypedstid="0" customendtypesrcid="0" adornsvisible="1" />
              </ddsxmlobj>
            </control>
            <layoutobject>
              <ddsxmlobj>
                <property name="LogicalObject" value="dataSet.Relations[PrestazioiDomande-TipiPrestazione]" vartype="8" />
                <property name="Virtual" value="0" vartype="11" />
                <property name="VisibleAP" value="0" vartype="3" />
              </ddsxmlobj>
            </layoutobject>
            <connector lineroutestyle="MSDDS.Rectilinear" sourceid="1" destid="7" sourceattachpoint="18" destattachpoint="29" segmenteditmode="0" bendpointeditmode="0" bendpointvisibility="0" relatedid="0" virtual="0">
              <point x="7235" y="33986" />
              <point x="6035" y="33986" />
              <point x="6035" y="29410" />
              <point x="4835" y="29410" />
            </connector>
          </ddscontrol>
          <ddscontrol controlprogid="MSDDS.Polyline" left="8886" top="12272" logicalid="50" controlid="23" masterid="0" hint1="0" hint2="0" width="7864" height="20852" noresize="0" nomove="0" nodefaultattachpoints="1" autodrag="0" usedefaultiddshape="0" selectable="1" showselectionhandles="0" allownudging="1" isannotation="0" dontautolayout="0" groupcollapsed="0" tabstop="1" visible="1" snaptogrid="0">
            <control>
              <ddsxmlobj>
                <polyline endtypedst="6" endtypesrc="3" usercolor="0" linestyle="0" linerender="1" customendtypedstid="0" customendtypesrcid="0" adornsvisible="1" />
              </ddsxmlobj>
            </control>
            <layoutobject>
              <ddsxmlobj>
                <property name="LogicalObject" value="dataSet.Relations[Prestazioni-TipiPrestazione]" vartype="8" />
                <property name="Virtual" value="0" vartype="11" />
                <property name="VisibleAP" value="0" vartype="3" />
              </ddsxmlobj>
            </layoutobject>
            <connector lineroutestyle="MSDDS.Rectilinear" sourceid="1" destid="5" sourceattachpoint="6" destattachpoint="3" segmenteditmode="0" bendpointeditmode="0" bendpointvisibility="0" relatedid="0" virtual="0">
              <point x="9285" y="32624" />
              <point x="9285" y="22598" />
              <point x="16450" y="22598" />
              <point x="16450" y="12572" />
            </connector>
          </ddscontrol>
          <ddscontrol controlprogid="MSDDS.Polyline" left="11036" top="33587" logicalid="51" controlid="24" masterid="0" hint1="0" hint2="0" width="9475" height="3299" noresize="0" nomove="0" nodefaultattachpoints="1" autodrag="0" usedefaultiddshape="0" selectable="1" showselectionhandles="0" allownudging="1" isannotation="0" dontautolayout="0" groupcollapsed="0" tabstop="1" visible="1" snaptogrid="0">
            <control>
              <ddsxmlobj>
                <polyline endtypedst="6" endtypesrc="3" usercolor="0" linestyle="0" linerender="1" customendtypedstid="0" customendtypesrcid="0" adornsvisible="1" />
              </ddsxmlobj>
            </control>
            <layoutobject>
              <ddsxmlobj>
                <property name="LogicalObject" value="dataSet.Relations[PrestazioniComplete-TipiPrestazione]" vartype="8" />
                <property name="Virtual" value="0" vartype="11" />
                <property name="VisibleAP" value="0" vartype="3" />
              </ddsxmlobj>
            </layoutobject>
            <connector lineroutestyle="MSDDS.Rectilinear" sourceid="1" destid="6" sourceattachpoint="19" destattachpoint="14" segmenteditmode="0" bendpointeditmode="0" bendpointvisibility="0" relatedid="0" virtual="0">
              <point x="11336" y="33986" />
              <point x="15773" y="33986" />
              <point x="15773" y="36586" />
              <point x="20211" y="36586" />
            </connector>
          </ddscontrol>
          <ddscontrol controlprogid="MSDDS.Polyline" left="16747" top="12272" logicalid="52" controlid="25" masterid="0" hint1="0" hint2="0" width="1653" height="9172" noresize="0" nomove="0" nodefaultattachpoints="1" autodrag="0" usedefaultiddshape="0" selectable="1" showselectionhandles="0" allownudging="1" isannotation="0" dontautolayout="0" groupcollapsed="0" tabstop="1" visible="1" snaptogrid="0">
            <control>
              <ddsxmlobj>
                <polyline endtypedst="6" endtypesrc="3" usercolor="0" linestyle="0" linerender="1" customendtypedstid="0" customendtypesrcid="0" adornsvisible="1" />
              </ddsxmlobj>
            </control>
            <layoutobject>
              <ddsxmlobj>
                <property name="LogicalObject" value="dataSet.Relations[Prestazioni-PrestazioniStatiDomanda]" vartype="8" />
                <property name="Virtual" value="0" vartype="11" />
                <property name="VisibleAP" value="0" vartype="3" />
              </ddsxmlobj>
            </layoutobject>
            <connector lineroutestyle="MSDDS.Rectilinear" sourceid="2" destid="5" sourceattachpoint="8" destattachpoint="9" segmenteditmode="0" bendpointeditmode="0" bendpointvisibility="0" relatedid="0" virtual="0">
              <point x="17146" y="20944" />
              <point x="17146" y="16758" />
              <point x="18100" y="16758" />
              <point x="18100" y="12572" />
            </connector>
          </ddscontrol>
          <ddscontrol controlprogid="MSDDS.Polyline" left="16747" top="22324" logicalid="53" controlid="26" masterid="0" hint1="0" hint2="0" width="5470" height="13162" noresize="0" nomove="0" nodefaultattachpoints="1" autodrag="0" usedefaultiddshape="0" selectable="1" showselectionhandles="0" allownudging="1" isannotation="0" dontautolayout="0" groupcollapsed="0" tabstop="1" visible="1" snaptogrid="0">
            <control>
              <ddsxmlobj>
                <polyline endtypedst="6" endtypesrc="3" usercolor="0" linestyle="0" linerender="1" customendtypedstid="0" customendtypesrcid="0" adornsvisible="1" />
              </ddsxmlobj>
            </control>
            <layoutobject>
              <ddsxmlobj>
                <property name="LogicalObject" value="dataSet.Relations[PrestazioniComplete-PrestazioniStatiDomanda]" vartype="8" />
                <property name="Virtual" value="0" vartype="11" />
                <property name="VisibleAP" value="0" vartype="3" />
              </ddsxmlobj>
            </layoutobject>
            <connector lineroutestyle="MSDDS.Rectilinear" sourceid="2" destid="6" sourceattachpoint="9" destattachpoint="4" segmenteditmode="0" bendpointeditmode="0" bendpointvisibility="0" relatedid="0" virtual="0">
              <point x="17146" y="22823" />
              <point x="17146" y="29004" />
              <point x="21917" y="29004" />
              <point x="21917" y="35186" />
            </connector>
          </ddscontrol>
          <ddscontrol controlprogid="MSDDS.Polyline" left="4535" top="21484" logicalid="54" controlid="27" masterid="0" hint1="0" hint2="0" width="10596" height="7126" noresize="0" nomove="0" nodefaultattachpoints="1" autodrag="0" usedefaultiddshape="0" selectable="1" showselectionhandles="0" allownudging="1" isannotation="0" dontautolayout="0" groupcollapsed="0" tabstop="1" visible="1" snaptogrid="0">
            <control>
              <ddsxmlobj>
                <polyline endtypedst="6" endtypesrc="3" usercolor="0" linestyle="0" linerender="1" customendtypedstid="0" customendtypesrcid="0" adornsvisible="1" />
              </ddsxmlobj>
            </control>
            <layoutobject>
              <ddsxmlobj>
                <property name="LogicalObject" value="dataSet.Relations[PrestazioiDomande-PrestazioniStatiDomanda]" vartype="8" />
                <property name="Virtual" value="0" vartype="11" />
                <property name="VisibleAP" value="0" vartype="3" />
              </ddsxmlobj>
            </layoutobject>
            <connector lineroutestyle="MSDDS.Rectilinear" sourceid="2" destid="7" sourceattachpoint="20" destattachpoint="25" segmenteditmode="0" bendpointeditmode="0" bendpointvisibility="0" relatedid="0" virtual="0">
              <point x="14831" y="21883" />
              <point x="9833" y="21883" />
              <point x="9833" y="28310" />
              <point x="4835" y="28310" />
            </connector>
          </ddscontrol>
        </dds>
      </Value>
    </Annotation>
    <Annotation>
      <Name>http://schemas.microsoft.com/DataWarehouse/Designer/1.0:ShowFriendlyNames</Name>
      <Value>true</Value>
    </Annotation>
    <Annotation>
      <Name>http://schemas.microsoft.com/DataWarehouse/Designer/1.0:ShowRelationshipNames</Name>
      <Value>false</Value>
    </Annotation>
    <Annotation>
      <Name>http://schemas.microsoft.com/DataWarehouse/Designer/1.0:UseDiagramDefaultLayout</Name>
      <Value>true</Value>
    </Annotation>
    <Annotation>
      <Name>http://schemas.microsoft.com/DataWarehouse/Designer/1.0:DiagramViewPortLeft</Name>
      <Value>6134</Value>
    </Annotation>
    <Annotation>
      <Name>http://schemas.microsoft.com/DataWarehouse/Designer/1.0:DiagramViewPortTop</Name>
      <Value>8187</Value>
    </Annotation>
    <Annotation>
      <Name>http://schemas.microsoft.com/DataWarehouse/Designer/1.0:DiagramBoundingLeft</Name>
      <Value>20</Value>
    </Annotation>
    <Annotation>
      <Name>http://schemas.microsoft.com/DataWarehouse/Designer/1.0:DiagramBoundingTop</Name>
      <Value>0</Value>
    </Annotation>
    <Annotation>
      <Name>http://schemas.microsoft.com/DataWarehouse/Designer/1.0:DiagramZoom</Name>
      <Value>100</Value>
    </Annotation>
  </Annotations>
  <LastProcessed>0001-01-01T00:00:00Z</LastProcessed>
  <State>Unprocessed</State>
  <Dimensions>
    <Dimension dwd:design-time-name="7e9b8028-a66d-4f99-af93-bf618d6005ae">
      <ID>Prestazioni</ID>
      <Name>Prestazioni Liquidate</Name>
      <DimensionID>Prestazioni</DimensionID>
      <Attributes>
        <Attribute dwd:design-time-name="7b972d23-153d-4f63-80d3-1f4281921a61">
          <AttributeID>Id</AttributeID>
        </Attribute>
        <Attribute dwd:design-time-name="dcf60419-03ea-4c38-985f-8707c5f46525">
          <AttributeID>Data Domanda</AttributeID>
        </Attribute>
        <Attribute dwd:design-time-name="02030d2d-a77e-410f-9987-b3edb0dc1865">
          <AttributeID>Data Liquidazione</AttributeID>
        </Attribute>
        <Attribute dwd:design-time-name="b06ffad8-0e7f-4b7f-8b84-541d14ab938b">
          <AttributeID>Id Lavoratore</AttributeID>
        </Attribute>
        <Attribute dwd:design-time-name="22aa3586-511b-4b4f-beb4-60a6cb3c9822">
          <AttributeID>Id Impresa</AttributeID>
        </Attribute>
        <Attribute dwd:design-time-name="4fbbbbee-fe49-4ee8-b20e-40f313e187e9">
          <AttributeID>Id Prestazione</AttributeID>
        </Attribute>
        <Attribute dwd:design-time-name="48b9ce57-0e00-4a4f-a347-3bba53a206e0">
          <AttributeID>Stato</AttributeID>
        </Attribute>
        <Attribute dwd:design-time-name="674d2447-5435-4386-b33d-594c0ee6e6a1">
          <AttributeID>Modalita Pagamento</AttributeID>
        </Attribute>
        <Attribute dwd:design-time-name="a9643726-01dc-41d3-99a8-94599a24b0c1">
          <AttributeID>Provenienza</AttributeID>
        </Attribute>
        <Attribute dwd:design-time-name="d6d6a0cd-d8d4-4731-bd61-6889d9e2425b">
          <AttributeID>Fascia Età</AttributeID>
        </Attribute>
        <Attribute dwd:design-time-name="b35d5e94-ccb2-4481-a1b2-b2439d8ed245">
          <AttributeID>Stato Pagamento</AttributeID>
        </Attribute>
        <Attribute dwd:design-time-name="69c7500d-d3ee-47be-935b-5c82307e7dc3">
          <AttributeID>Descrizione Stato Assegno</AttributeID>
        </Attribute>
        <Attribute dwd:design-time-name="0673b85f-a58e-4ffe-b88d-7af5a5aa0b56">
          <AttributeID>Durata</AttributeID>
        </Attribute>
        <Attribute dwd:design-time-name="bc2e58e5-83fa-4871-9d61-9d025b4100f1">
          <AttributeID>Tipo</AttributeID>
        </Attribute>
      </Attributes>
    </Dimension>
    <Dimension dwd:design-time-name="9180bf11-99b7-4c37-ae28-d3137905bc2f">
      <ID>Data Domanda</ID>
      <Name>Data Domanda</Name>
      <DimensionID>Time 1 1</DimensionID>
      <Attributes>
        <Attribute dwd:design-time-name="0df33077-8a66-40bd-903a-fe51b6f628fa">
          <AttributeID>PK Date</AttributeID>
        </Attribute>
        <Attribute dwd:design-time-name="615f130e-344d-4364-aa51-87f0d1747b9d">
          <AttributeID>Anno</AttributeID>
        </Attribute>
        <Attribute dwd:design-time-name="665c1e28-7c8b-487d-92b6-91706df9c470">
          <AttributeID>Mese</AttributeID>
        </Attribute>
      </Attributes>
      <Hierarchies>
        <Hierarchy dwd:design-time-name="df8f0466-b1ad-473f-ae6f-bce04d36db34">
          <HierarchyID>Hierarchy</HierarchyID>
        </Hierarchy>
      </Hierarchies>
    </Dimension>
    <Dimension dwd:design-time-name="b0aa4929-0ea4-4516-aa64-205625c7fd59">
      <ID>Data Liquidazione</ID>
      <Name>Data Liquidazione</Name>
      <DimensionID>Time 1 1</DimensionID>
      <Attributes>
        <Attribute dwd:design-time-name="46a3401f-a14d-4498-a7ae-221f5bc8cb1c">
          <AttributeID>PK Date</AttributeID>
        </Attribute>
        <Attribute dwd:design-time-name="286ac053-68d2-41a9-a823-8b623b21c14e">
          <AttributeID>Anno</AttributeID>
        </Attribute>
        <Attribute dwd:design-time-name="81c4adf2-e33d-4a74-a11a-2de0c279c1ed">
          <AttributeID>Mese</AttributeID>
        </Attribute>
      </Attributes>
      <Hierarchies>
        <Hierarchy dwd:design-time-name="708c4638-3426-4cdf-93fe-6aa6eef18e20">
          <HierarchyID>Hierarchy</HierarchyID>
        </Hierarchy>
      </Hierarchies>
    </Dimension>
    <Dimension dwd:design-time-name="96d86036-37fc-4577-a892-cb25085509f2">
      <ID>Prestazioni Complete</ID>
      <Name>Prestazioni</Name>
      <DimensionID>Prestazioni Complete</DimensionID>
      <Attributes>
        <Attribute dwd:design-time-name="4c5b534e-5b31-40d2-ab94-adaf20c33397">
          <AttributeID>Id</AttributeID>
        </Attribute>
        <Attribute dwd:design-time-name="8e8168d1-6cf2-4f0c-8df9-42f369360f27">
          <AttributeID>Data Domanda</AttributeID>
        </Attribute>
        <Attribute dwd:design-time-name="1aa5fa9b-ecab-417f-a9ae-5f32fd8d84cd">
          <AttributeID>Id Lavoratore</AttributeID>
        </Attribute>
        <Attribute dwd:design-time-name="d1badc23-be09-4b4e-8227-f7ebc1502d68">
          <AttributeID>Id Impresa</AttributeID>
        </Attribute>
        <Attribute dwd:design-time-name="e80f58bb-75f8-4bac-add3-3ce3b527c841">
          <AttributeID>Id Tipo Prestazione</AttributeID>
        </Attribute>
        <Attribute dwd:design-time-name="fbc29738-89f5-4900-8562-55919550b124">
          <AttributeID>Stato</AttributeID>
        </Attribute>
        <Attribute dwd:design-time-name="f3dd23c2-b21c-4c1f-a11e-d541d02da0e1">
          <AttributeID>Fascia Età</AttributeID>
        </Attribute>
        <Attribute dwd:design-time-name="6d48376e-79bf-4480-9fb6-2936eb61e884">
          <AttributeID>Provenienza</AttributeID>
        </Attribute>
        <Attribute dwd:design-time-name="0b8bc9a6-ac6c-4727-90d0-98d6bf91cbe3">
          <AttributeID>Tipo</AttributeID>
        </Attribute>
        <Attribute dwd:design-time-name="ed64f9bd-e230-4eed-9601-162362f74866">
          <AttributeID>Durata</AttributeID>
        </Attribute>
      </Attributes>
    </Dimension>
    <Dimension dwd:design-time-name="0d93fcad-ecbc-4c9c-9a5e-e2804ee48e8f">
      <ID>Tipi Prestazione</ID>
      <Name>Tipi Prestazione</Name>
      <DimensionID>Tipi Prestazione</DimensionID>
      <Attributes>
        <Attribute dwd:design-time-name="b92bc0be-b492-4d0d-94cc-a3f1b0baeeee">
          <AttributeID>Id Tipo Prestazione</AttributeID>
        </Attribute>
      </Attributes>
    </Dimension>
    <Dimension dwd:design-time-name="31123da6-3eac-4ce7-85b9-193243f7f0b0">
      <ID>Prestazioi Domande</ID>
      <Name>Domande Pervenute</Name>
      <DimensionID>Prestazioi Domande</DimensionID>
      <Attributes>
        <Attribute dwd:design-time-name="ccac2aeb-d870-4e03-9f1b-bc693a062371">
          <AttributeID>Id Prestazioni Domanda</AttributeID>
        </Attribute>
        <Attribute dwd:design-time-name="1bd35330-7934-4e6d-9f46-989057d016cf">
          <AttributeID>Data Domanda</AttributeID>
        </Attribute>
        <Attribute dwd:design-time-name="abaa0e6c-7a8a-4887-8bfa-429ba3ab911e">
          <AttributeID>Id Lavoratore</AttributeID>
        </Attribute>
        <Attribute dwd:design-time-name="3989b6f9-416c-4de7-aa7a-ee8fcc2d0b46">
          <AttributeID>Id Impresa</AttributeID>
        </Attribute>
        <Attribute dwd:design-time-name="eba9e635-0c32-4b58-acfc-e4059210b94c">
          <AttributeID>Id Tipo Prestazione</AttributeID>
        </Attribute>
        <Attribute dwd:design-time-name="e2371c64-60b0-404a-9642-51adae2330f5">
          <AttributeID>Stato</AttributeID>
        </Attribute>
        <Attribute dwd:design-time-name="1eb67e36-2e75-4a10-82c0-e46357b87c4f">
          <AttributeID>Tipo Inserimento</AttributeID>
        </Attribute>
        <Attribute dwd:design-time-name="09e67490-dd4f-4234-872c-d7cdf70344ff">
          <AttributeID>Autenticazione</AttributeID>
        </Attribute>
        <Attribute dwd:design-time-name="114acbc8-991f-4364-b657-ab1d305c1629">
          <AttributeID>Provenienza</AttributeID>
        </Attribute>
        <Attribute dwd:design-time-name="cdcdb56c-7a3c-4f39-a55a-04267a790b58">
          <AttributeID>Fascia Età</AttributeID>
        </Attribute>
      </Attributes>
    </Dimension>
    <Dimension dwd:design-time-name="9cdedd46-827a-47d8-85ea-07d6916ced50">
      <ID>Prestazioni Stati Domanda</ID>
      <Name>Stato Domanda</Name>
      <DimensionID>Prestazioni Stati Domanda</DimensionID>
      <Attributes>
        <Attribute dwd:design-time-name="cc9d8a3f-54b3-4725-9188-03588ca06bc1">
          <AttributeID>Id Prestazioni Stato Domanda</AttributeID>
        </Attribute>
      </Attributes>
    </Dimension>
    <Dimension dwd:design-time-name="45e19edd-e04b-4d80-8e7e-752e1537f945">
      <ID>Lavoratori</ID>
      <Name>Lavoratori</Name>
      <DimensionID>Lavoratori</DimensionID>
      <Attributes>
        <Attribute dwd:design-time-name="0f460cc7-3087-4498-a150-a6d415808133">
          <AttributeID>Id Lavoratore</AttributeID>
        </Attribute>
        <Attribute dwd:design-time-name="2cd35953-b350-4a3d-af7c-f385f08861d0">
          <AttributeID>Provenienza</AttributeID>
        </Attribute>
        <Attribute dwd:design-time-name="ab843f7e-14bc-4bb9-a738-a9d09a89d424">
          <AttributeID>Iban</AttributeID>
        </Attribute>
        <Attribute dwd:design-time-name="f89c6005-a047-4f9c-8879-93e5b10b5002">
          <AttributeID>Provincia Residenza</AttributeID>
        </Attribute>
      </Attributes>
    </Dimension>
    <Dimension dwd:design-time-name="cea39344-375d-48ab-8176-11f2ba05a6fb">
      <ID>Time 1</ID>
      <Name>Data Ape</Name>
      <DimensionID>Time 1 1</DimensionID>
      <Attributes>
        <Attribute dwd:design-time-name="3453dd9d-59bd-4ead-b007-f4ab30326f3a">
          <AttributeID>PK Date</AttributeID>
        </Attribute>
        <Attribute dwd:design-time-name="08cc571e-410b-4ab6-be58-d8b7b2f7caf7">
          <AttributeID>Anno</AttributeID>
        </Attribute>
        <Attribute dwd:design-time-name="0d2de163-7c86-4d56-94ad-46d59e090d02">
          <AttributeID>Mese</AttributeID>
        </Attribute>
      </Attributes>
      <Hierarchies>
        <Hierarchy dwd:design-time-name="2aa3a19f-5f26-4cef-a1e2-cc570988ae1d">
          <HierarchyID>Hierarchy</HierarchyID>
        </Hierarchy>
      </Hierarchies>
    </Dimension>
    <Dimension dwd:design-time-name="4c6b4d17-ad2f-4c0f-bc1b-f859d460b073">
      <ID>Imprese</ID>
      <Name>Imprese</Name>
      <DimensionID>Imprese</DimensionID>
      <Attributes>
        <Attribute dwd:design-time-name="4aba7d57-f1e2-497e-8c12-230484941493">
          <AttributeID>Id Impresa</AttributeID>
        </Attribute>
        <Attribute dwd:design-time-name="a81a57cd-7419-4bc5-be63-860e7e70fcec">
          <AttributeID>Stato</AttributeID>
        </Attribute>
        <Attribute dwd:design-time-name="6089d13c-a572-453e-a842-6d35cde0d8d7">
          <AttributeID>Dimensione</AttributeID>
        </Attribute>
        <Attribute dwd:design-time-name="b57571e1-0a89-4470-a6f0-884d703ae7de">
          <AttributeID>Tipologia Impresa</AttributeID>
        </Attribute>
        <Attribute dwd:design-time-name="65c3bc5c-ea57-4d6b-9adc-741bb3849d20">
          <AttributeID>Tipo Impresa</AttributeID>
        </Attribute>
        <Attribute dwd:design-time-name="8be87fdf-8efd-4083-9c3a-03545dc53aa5">
          <AttributeID>Id Dimensione</AttributeID>
        </Attribute>
      </Attributes>
    </Dimension>
    <Dimension dwd:design-time-name="d916d1ee-0be3-4e44-95fa-ad62c8eb6e54">
      <ID>Data Denormalizzazione</ID>
      <Name>Data Denormalizzazione</Name>
      <DimensionID>Time 1 1</DimensionID>
      <Attributes>
        <Attribute dwd:design-time-name="eec36c4b-6dc2-44df-b89b-844a6fc9d666">
          <AttributeID>PK Date</AttributeID>
        </Attribute>
        <Attribute dwd:design-time-name="b5d8adf8-532a-4391-ac5c-9f88dfaf26df">
          <AttributeID>Anno</AttributeID>
        </Attribute>
        <Attribute dwd:design-time-name="8d3657c5-9a35-4212-943e-7af11276ba80">
          <AttributeID>Mese</AttributeID>
        </Attribute>
      </Attributes>
      <Hierarchies>
        <Hierarchy dwd:design-time-name="21b7e506-9818-4266-a5c1-2526ff7e62e9">
          <HierarchyID>Hierarchy</HierarchyID>
        </Hierarchy>
      </Hierarchies>
    </Dimension>
  </Dimensions>
  <MeasureGroups>
    <MeasureGroup dwd:design-time-name="f18c5bcd-3e22-45e8-9515-7995f5d34a1a">
      <ID>Prestazioni</ID>
      <Name>Prestazioni Liquidate</Name>
      <CreatedTimestamp>0001-01-01T00:00:00Z</CreatedTimestamp>
      <LastSchemaUpdate>0001-01-01T00:00:00Z</LastSchemaUpdate>
      <LastProcessed>0001-01-01T00:00:00Z</LastProcessed>
      <State>Unprocessed</State>
      <Measures>
        <Measure dwd:design-time-name="d8a1e460-dce1-4662-81af-73c791f1e8d6">
          <ID>Importo Erogato</ID>
          <Name>Importo Erogato</Name>
          <Source dwd:design-time-name="c22ff354-2fa7-4bf9-beed-876accacc25a">
            <DataType>Double</DataType>
            <Source xsi:type="ColumnBinding" dwd:design-time-name="c4d61c7b-bc83-43c3-8836-2a78f7fa95e7">
              <TableID>Prestazioni</TableID>
              <ColumnID>importoErogato</ColumnID>
            </Source>
          </Source>
        </Measure>
        <Measure dwd:design-time-name="e79022fe-8bf6-460c-b432-e6ca29549880">
          <ID>Tempo Medio Liquidazione</ID>
          <Name>Tempo Medio Liquidazione</Name>
          <Source dwd:design-time-name="df711ff6-0fed-4530-b473-1060033b0e7b">
            <DataType>Integer</DataType>
            <Source xsi:type="ColumnBinding" dwd:design-time-name="381421ef-0886-458b-9f49-651376d59f04">
              <TableID>Prestazioni</TableID>
              <ColumnID>TempoMedioLiquidazione</ColumnID>
            </Source>
          </Source>
        </Measure>
        <Measure dwd:design-time-name="3704f94a-c8ba-4346-8f7f-0dbff0eda8ad">
          <ID>Prestazioni Count</ID>
          <Name>Numero Prestazioni Liquidate</Name>
          <AggregateFunction>Count</AggregateFunction>
          <Source dwd:design-time-name="af71def4-3312-4c5a-bf2e-0f1bde269980">
            <DataType>Integer</DataType>
            <DataSize>4</DataSize>
            <Source xsi:type="RowBinding" dwd:design-time-name="73dcde68-f150-4235-88e7-74dc31ee65ac">
              <TableID>Prestazioni</TableID>
            </Source>
          </Source>
        </Measure>
        <Measure dwd:design-time-name="c017e541-d516-417b-b895-94881bb71def">
          <ID>Maximum Data Inserimento Record 1</ID>
          <Name>Data aggiornamento prestazioni liquidate</Name>
          <AggregateFunction>Max</AggregateFunction>
          <Source dwd:design-time-name="f154ec96-8646-4368-8d3a-4e5ae1e49541">
            <DataType>Date</DataType>
            <Source xsi:type="ColumnBinding" dwd:design-time-name="160c93ab-e922-4918-8fb5-10d047341ff2">
              <TableID>Prestazioni</TableID>
              <ColumnID>DataInserimentoRecord</ColumnID>
            </Source>
          </Source>
        </Measure>
      </Measures>
      <StorageMode>Molap</StorageMode>
      <ProcessingMode>Regular</ProcessingMode>
      <Dimensions>
        <Dimension xsi:type="DegenerateMeasureGroupDimension" dwd:design-time-name="ec8b26a6-f8df-45f9-98a7-9963ab5c959a">
          <CubeDimensionID>Prestazioni</CubeDimensionID>
          <Attributes>
            <Attribute dwd:design-time-name="cf665cc4-ae4c-4eb4-9e26-5c76a5c2152c">
              <AttributeID>Id</AttributeID>
              <KeyColumns>
                <KeyColumn dwd:design-time-name="f2ffafb0-8847-44b5-a95b-52341b320cc5">
                  <DataType>WChar</DataType>
                  <DataSize>60</DataSize>
                  <Source xsi:type="ColumnBinding" dwd:design-time-name="9ba9f5b4-a32a-49c0-99a2-274cb8a7bd71">
                    <TableID>Prestazioni</TableID>
                    <ColumnID>id</ColumnID>
                  </Source>
                </KeyColumn>
              </KeyColumns>
              <Type>Granularity</Type>
            </Attribute>
          </Attributes>
        </Dimension>
        <Dimension xsi:type="RegularMeasureGroupDimension" dwd:design-time-name="7076bc30-d325-41f2-a982-a59af804b003">
          <CubeDimensionID>Data Domanda</CubeDimensionID>
          <Attributes>
            <Attribute dwd:design-time-name="d91886c6-97f4-4703-9c2c-d20e16c27ac3">
              <AttributeID>PK Date</AttributeID>
              <KeyColumns>
                <KeyColumn dwd:design-time-name="650d455a-5b9d-4b0c-ac6b-87b7e4a8655d">
                  <NullProcessing>UnknownMember</NullProcessing>
                  <DataType>Date</DataType>
                  <Source xsi:type="ColumnBinding" dwd:design-time-name="91412f1f-191b-454a-98ac-ffb8c3cb9e33">
                    <TableID>Prestazioni</TableID>
                    <ColumnID>dataDomanda</ColumnID>
                  </Source>
                </KeyColumn>
              </KeyColumns>
              <Type>Granularity</Type>
            </Attribute>
          </Attributes>
        </Dimension>
        <Dimension xsi:type="RegularMeasureGroupDimension" dwd:design-time-name="7360f400-f4fe-462b-8b1e-1832f5f4ef68">
          <CubeDimensionID>Data Liquidazione</CubeDimensionID>
          <Attributes>
            <Attribute dwd:design-time-name="5e1f2bcc-7528-4c8f-97f4-1c25307c22f7">
              <AttributeID>PK Date</AttributeID>
              <KeyColumns>
                <KeyColumn dwd:design-time-name="77b2a8c1-b201-412c-b44e-926ebd96a923">
                  <NullProcessing>UnknownMember</NullProcessing>
                  <DataType>Date</DataType>
                  <Source xsi:type="ColumnBinding" dwd:design-time-name="6b839bf5-d47c-4308-aec0-a199622c0808">
                    <TableID>Prestazioni</TableID>
                    <ColumnID>dataLiquidazione</ColumnID>
                  </Source>
                </KeyColumn>
              </KeyColumns>
              <Type>Granularity</Type>
            </Attribute>
          </Attributes>
        </Dimension>
        <Dimension xsi:type="RegularMeasureGroupDimension" dwd:design-time-name="3321c69c-8d48-45b2-aa02-53832b7c0056">
          <CubeDimensionID>Tipi Prestazione</CubeDimensionID>
          <Attributes>
            <Attribute dwd:design-time-name="4380a9de-6f13-461e-ad89-0d31eec1c372">
              <AttributeID>Id Tipo Prestazione</AttributeID>
              <KeyColumns>
                <KeyColumn dwd:design-time-name="227fae25-5b8c-4456-bd09-64e5b1f8be1d">
                  <NullProcessing>UnknownMember</NullProcessing>
                  <DataType>WChar</DataType>
                  <DataSize>6</DataSize>
                  <Source xsi:type="ColumnBinding" dwd:design-time-name="26e43e30-c539-495a-8cfd-6bf31a92678d">
                    <TableID>Prestazioni</TableID>
                    <ColumnID>idPrestazione</ColumnID>
                  </Source>
                </KeyColumn>
              </KeyColumns>
              <Type>Granularity</Type>
            </Attribute>
          </Attributes>
        </Dimension>
        <Dimension xsi:type="RegularMeasureGroupDimension" dwd:design-time-name="1058229a-52d1-4246-8791-ca48d2ac788b">
          <CubeDimensionID>Prestazioni Stati Domanda</CubeDimensionID>
          <Attributes>
            <Attribute dwd:design-time-name="ae6c5b87-a41a-488c-8243-94618d9446a7">
              <AttributeID>Id Prestazioni Stato Domanda</AttributeID>
              <KeyColumns>
                <KeyColumn dwd:design-time-name="5cf0a94e-041d-47af-bebf-1ee1d7a426f0">
                  <NullProcessing>UnknownMember</NullProcessing>
                  <DataType>WChar</DataType>
                  <DataSize>1</DataSize>
                  <Source xsi:type="ColumnBinding" dwd:design-time-name="45d454c1-1a27-4d5a-8e84-d922b2e0e5a1">
                    <TableID>Prestazioni</TableID>
                    <ColumnID>stato</ColumnID>
                  </Source>
                </KeyColumn>
              </KeyColumns>
              <Type>Granularity</Type>
            </Attribute>
          </Attributes>
        </Dimension>
        <Dimension xsi:type="RegularMeasureGroupDimension" dwd:design-time-name="6053c462-afd5-438a-b6a7-c042caddb59c">
          <CubeDimensionID>Lavoratori</CubeDimensionID>
          <Attributes>
            <Attribute dwd:design-time-name="238de172-ef6f-48e2-b907-249e5ce2282b">
              <AttributeID>Id Lavoratore</AttributeID>
              <KeyColumns>
                <KeyColumn dwd:design-time-name="b02c8609-4ec6-46db-a0f6-914ab103d40a">
                  <NullProcessing>UnknownMember</NullProcessing>
                  <DataType>Integer</DataType>
                  <Source xsi:type="ColumnBinding" dwd:design-time-name="d218d638-1473-49de-b813-d8fcf91ad862">
                    <TableID>Prestazioni</TableID>
                    <ColumnID>idLavoratore</ColumnID>
                  </Source>
                </KeyColumn>
              </KeyColumns>
              <Type>Granularity</Type>
            </Attribute>
          </Attributes>
        </Dimension>
        <Dimension xsi:type="RegularMeasureGroupDimension" dwd:design-time-name="e0f10e23-eb48-4732-9a16-fd3e53198e13">
          <CubeDimensionID>Imprese</CubeDimensionID>
          <Attributes>
            <Attribute dwd:design-time-name="e2178dd1-7302-4672-b70f-32c9de61b713">
              <AttributeID>Id Impresa</AttributeID>
              <KeyColumns>
                <KeyColumn dwd:design-time-name="e1d52fa9-b01c-4c5c-abad-0bed6949dad6">
                  <NullProcessing>UnknownMember</NullProcessing>
                  <DataType>Integer</DataType>
                  <Source xsi:type="ColumnBinding" dwd:design-time-name="cba38afb-24ee-4334-b257-f39ef3901d2d">
                    <TableID>Prestazioni</TableID>
                    <ColumnID>idImpresa</ColumnID>
                  </Source>
                </KeyColumn>
              </KeyColumns>
              <Type>Granularity</Type>
            </Attribute>
          </Attributes>
        </Dimension>
      </Dimensions>
      <Partitions />
    </MeasureGroup>
    <MeasureGroup dwd:design-time-name="dc9e0e03-03ae-44c9-9705-b2244db0d9f7">
      <ID>Prestazioni Complete</ID>
      <Name>Prestazioni</Name>
      <CreatedTimestamp>0001-01-01T00:00:00Z</CreatedTimestamp>
      <LastSchemaUpdate>0001-01-01T00:00:00Z</LastSchemaUpdate>
      <LastProcessed>0001-01-01T00:00:00Z</LastProcessed>
      <State>Unprocessed</State>
      <Measures>
        <Measure dwd:design-time-name="d421ac0b-4cff-43ec-908e-bb88c34ad4ad">
          <ID>Prestazioni Complete Count</ID>
          <Name>Numero Prestazioni</Name>
          <AggregateFunction>Count</AggregateFunction>
          <Source dwd:design-time-name="a8d3a7b8-603a-454a-af3b-d7601258d829">
            <DataType>Integer</DataType>
            <DataSize>4</DataSize>
            <Source xsi:type="RowBinding" dwd:design-time-name="74842f1c-5d2d-45b2-85c3-4656ea599234">
              <TableID>PrestazioniComplete</TableID>
            </Source>
          </Source>
        </Measure>
      </Measures>
      <StorageMode>Molap</StorageMode>
      <ProcessingMode>Regular</ProcessingMode>
      <Dimensions>
        <Dimension xsi:type="DegenerateMeasureGroupDimension" dwd:design-time-name="c825b69f-c80a-4306-89b2-94aeddd6a364">
          <CubeDimensionID>Prestazioni Complete</CubeDimensionID>
          <Attributes>
            <Attribute dwd:design-time-name="78c252b0-9152-4311-961e-03a4aa958ab2">
              <AttributeID>Id</AttributeID>
              <KeyColumns>
                <KeyColumn dwd:design-time-name="1568938b-d21a-4ae1-a24d-3700ad3db8f7">
                  <DataType>WChar</DataType>
                  <DataSize>60</DataSize>
                  <Source xsi:type="ColumnBinding" dwd:design-time-name="1cec980a-e2b3-4517-b725-0f19cd25f16a">
                    <TableID>PrestazioniComplete</TableID>
                    <ColumnID>id</ColumnID>
                  </Source>
                </KeyColumn>
              </KeyColumns>
              <Type>Granularity</Type>
            </Attribute>
          </Attributes>
        </Dimension>
        <Dimension xsi:type="RegularMeasureGroupDimension" dwd:design-time-name="77f01ddd-050a-4987-b734-fa9b5d228b91">
          <CubeDimensionID>Data Domanda</CubeDimensionID>
          <Attributes>
            <Attribute dwd:design-time-name="403e9072-ad15-4992-8405-7e522320cee3">
              <AttributeID>PK Date</AttributeID>
              <KeyColumns>
                <KeyColumn dwd:design-time-name="80fcb284-e21f-40ea-99b3-f0441aa7a8b8">
                  <NullProcessing>UnknownMember</NullProcessing>
                  <DataType>Date</DataType>
                  <Source xsi:type="ColumnBinding" dwd:design-time-name="29760599-d458-4bc4-86a0-5d52c1dfcf9d">
                    <TableID>PrestazioniComplete</TableID>
                    <ColumnID>dataDomanda</ColumnID>
                  </Source>
                </KeyColumn>
              </KeyColumns>
              <Type>Granularity</Type>
            </Attribute>
          </Attributes>
        </Dimension>
        <Dimension xsi:type="RegularMeasureGroupDimension" dwd:design-time-name="77c02490-c3f0-493f-8406-62c58caf09d1">
          <CubeDimensionID>Tipi Prestazione</CubeDimensionID>
          <Attributes>
            <Attribute dwd:design-time-name="96d3bf03-4bb3-4395-a892-567f51aa618c">
              <AttributeID>Id Tipo Prestazione</AttributeID>
              <KeyColumns>
                <KeyColumn dwd:design-time-name="f82fde91-313e-434e-a82d-53da0d6bb1bf">
                  <NullProcessing>UnknownMember</NullProcessing>
                  <DataType>WChar</DataType>
                  <DataSize>6</DataSize>
                  <Source xsi:type="ColumnBinding" dwd:design-time-name="ce3059a6-0442-4970-bb5e-414ecb6c7df1">
                    <TableID>PrestazioniComplete</TableID>
                    <ColumnID>idTipoPrestazione</ColumnID>
                  </Source>
                </KeyColumn>
              </KeyColumns>
              <Type>Granularity</Type>
            </Attribute>
          </Attributes>
        </Dimension>
        <Dimension xsi:type="RegularMeasureGroupDimension" dwd:design-time-name="46b420c4-bd6a-472d-8718-f9f7bc1991ae">
          <CubeDimensionID>Prestazioni Stati Domanda</CubeDimensionID>
          <Attributes>
            <Attribute dwd:design-time-name="97c927b7-8018-4b57-a083-b73938ed3ad1">
              <AttributeID>Id Prestazioni Stato Domanda</AttributeID>
              <KeyColumns>
                <KeyColumn dwd:design-time-name="9160f106-b8d9-4373-9460-eb2e8904b0d3">
                  <NullProcessing>UnknownMember</NullProcessing>
                  <DataType>WChar</DataType>
                  <DataSize>1</DataSize>
                  <Source xsi:type="ColumnBinding" dwd:design-time-name="b6e17e5d-738a-48c8-86b6-f6c04da2dd2a">
                    <TableID>PrestazioniComplete</TableID>
                    <ColumnID>stato</ColumnID>
                  </Source>
                </KeyColumn>
              </KeyColumns>
              <Type>Granularity</Type>
            </Attribute>
          </Attributes>
        </Dimension>
        <Dimension xsi:type="RegularMeasureGroupDimension" dwd:design-time-name="7e577c05-f24c-4248-a242-6b8143d2b48b">
          <CubeDimensionID>Lavoratori</CubeDimensionID>
          <Attributes>
            <Attribute dwd:design-time-name="8bffeaa8-d664-4f79-8210-1242a566f7c5">
              <AttributeID>Id Lavoratore</AttributeID>
              <KeyColumns>
                <KeyColumn dwd:design-time-name="deff18b8-47e7-4d48-98a8-791f3b67a805">
                  <NullProcessing>UnknownMember</NullProcessing>
                  <DataType>Integer</DataType>
                  <Source xsi:type="ColumnBinding" dwd:design-time-name="585238ac-4c9a-4541-9fe8-c7080494d8ac">
                    <TableID>PrestazioniComplete</TableID>
                    <ColumnID>idLavoratore</ColumnID>
                  </Source>
                </KeyColumn>
              </KeyColumns>
              <Type>Granularity</Type>
            </Attribute>
          </Attributes>
        </Dimension>
        <Dimension xsi:type="RegularMeasureGroupDimension" dwd:design-time-name="3f43fc70-fd47-4ffd-9ebf-d673f445b57e">
          <CubeDimensionID>Imprese</CubeDimensionID>
          <Attributes>
            <Attribute dwd:design-time-name="fc85b8da-d2ab-4ef0-ad0a-c6bbbcf6dd49">
              <AttributeID>Id Impresa</AttributeID>
              <KeyColumns>
                <KeyColumn dwd:design-time-name="1576b272-9e74-4a85-a176-0408736a33ba">
                  <NullProcessing>UnknownMember</NullProcessing>
                  <DataType>Integer</DataType>
                  <Source xsi:type="ColumnBinding" dwd:design-time-name="5b1f9891-4be1-459a-9322-004f4704c870">
                    <TableID>PrestazioniComplete</TableID>
                    <ColumnID>idImpresa</ColumnID>
                  </Source>
                </KeyColumn>
              </KeyColumns>
              <Type>Granularity</Type>
            </Attribute>
          </Attributes>
        </Dimension>
      </Dimensions>
      <Partitions />
    </MeasureGroup>
    <MeasureGroup dwd:design-time-name="9ac93272-9578-4355-a2b6-ac2b6835e4c5">
      <ID>Prestazioi Domande</ID>
      <Name>Domande Pervenute</Name>
      <CreatedTimestamp>0001-01-01T00:00:00Z</CreatedTimestamp>
      <LastSchemaUpdate>0001-01-01T00:00:00Z</LastSchemaUpdate>
      <LastProcessed>0001-01-01T00:00:00Z</LastProcessed>
      <State>Unprocessed</State>
      <Measures>
        <Measure dwd:design-time-name="9a10bedc-4b28-4ac8-87c8-e24b44b62b8d">
          <ID>Prestazioi Domande Count</ID>
          <Name>Numero Domande</Name>
          <AggregateFunction>Count</AggregateFunction>
          <Source dwd:design-time-name="176ce2e7-a15b-49ce-8b3f-83af55b273aa">
            <DataType>Integer</DataType>
            <DataSize>4</DataSize>
            <Source xsi:type="RowBinding" dwd:design-time-name="2954745f-f2dc-4fff-8da0-a64853eb15ed">
              <TableID>PrestazioiDomande</TableID>
            </Source>
          </Source>
        </Measure>
        <Measure dwd:design-time-name="c1474383-d8ed-41e0-ae2a-99a0d2bab558">
          <ID>Maximum Data Inserimento Record</ID>
          <Name>Data aggiornamento domande</Name>
          <AggregateFunction>Max</AggregateFunction>
          <Source dwd:design-time-name="8f8674fc-3cf3-4f50-9286-9a4a98ba4dbe">
            <DataType>Date</DataType>
            <Source xsi:type="ColumnBinding" dwd:design-time-name="f7510de0-01e4-474a-895f-32d364760054">
              <TableID>PrestazioiDomande</TableID>
              <ColumnID>DataInserimentoRecord</ColumnID>
            </Source>
          </Source>
        </Measure>
      </Measures>
      <StorageMode>Molap</StorageMode>
      <ProcessingMode>Regular</ProcessingMode>
      <Dimensions>
        <Dimension xsi:type="DegenerateMeasureGroupDimension" dwd:design-time-name="37a1134e-06ce-4165-9f71-175d76795d73">
          <CubeDimensionID>Prestazioi Domande</CubeDimensionID>
          <Attributes>
            <Attribute dwd:design-time-name="7a802295-9d1c-4a44-8cf3-3b177414099a">
              <AttributeID>Id Prestazioni Domanda</AttributeID>
              <KeyColumns>
                <KeyColumn dwd:design-time-name="b25425b2-763e-4f63-af90-c773063c8482">
                  <DataType>Integer</DataType>
                  <Source xsi:type="ColumnBinding" dwd:design-time-name="4aec4c55-4805-444f-b95a-37602a00a092">
                    <TableID>PrestazioiDomande</TableID>
                    <ColumnID>idPrestazioniDomanda</ColumnID>
                  </Source>
                </KeyColumn>
              </KeyColumns>
              <Type>Granularity</Type>
            </Attribute>
          </Attributes>
        </Dimension>
        <Dimension xsi:type="RegularMeasureGroupDimension" dwd:design-time-name="c6e11536-8958-4cc7-8e07-772937184f4c">
          <CubeDimensionID>Data Domanda</CubeDimensionID>
          <Attributes>
            <Attribute dwd:design-time-name="f056a9f7-4a08-4d66-8fc7-642a7d2ada49">
              <AttributeID>PK Date</AttributeID>
              <KeyColumns>
                <KeyColumn dwd:design-time-name="a133669b-ee04-4551-bc81-1c10956c1ea3">
                  <NullProcessing>UnknownMember</NullProcessing>
                  <DataType>Date</DataType>
                  <Source xsi:type="ColumnBinding" dwd:design-time-name="5e2e2cba-5186-4c7b-951f-fb16b07717e0">
                    <TableID>PrestazioiDomande</TableID>
                    <ColumnID>dataDomanda</ColumnID>
                  </Source>
                </KeyColumn>
              </KeyColumns>
              <Type>Granularity</Type>
            </Attribute>
          </Attributes>
        </Dimension>
        <Dimension xsi:type="RegularMeasureGroupDimension" dwd:design-time-name="25224c3f-efe1-4d90-997d-6d4ec40a73a2">
          <CubeDimensionID>Tipi Prestazione</CubeDimensionID>
          <Attributes>
            <Attribute dwd:design-time-name="63169f4e-c739-441b-9bb6-3773e596bbf7">
              <AttributeID>Id Tipo Prestazione</AttributeID>
              <KeyColumns>
                <KeyColumn dwd:design-time-name="3ace4304-1aa3-4db8-bb26-f4604b9ace4e">
                  <NullProcessing>UnknownMember</NullProcessing>
                  <DataType>WChar</DataType>
                  <DataSize>6</DataSize>
                  <Source xsi:type="ColumnBinding" dwd:design-time-name="de9841c5-2db0-4f74-8b90-dfab47ddda7f">
                    <TableID>PrestazioiDomande</TableID>
                    <ColumnID>idTipoPrestazione</ColumnID>
                  </Source>
                </KeyColumn>
              </KeyColumns>
              <Type>Granularity</Type>
            </Attribute>
          </Attributes>
        </Dimension>
        <Dimension xsi:type="RegularMeasureGroupDimension" dwd:design-time-name="0dd71604-f00b-4188-8dac-ae4255f71e91">
          <CubeDimensionID>Prestazioni Stati Domanda</CubeDimensionID>
          <Attributes>
            <Attribute dwd:design-time-name="6f059523-4aee-4d57-9cb8-b4fa52a543b8">
              <AttributeID>Id Prestazioni Stato Domanda</AttributeID>
              <KeyColumns>
                <KeyColumn dwd:design-time-name="ebf1586e-f82c-4025-9463-44eb723a281a">
                  <NullProcessing>UnknownMember</NullProcessing>
                  <DataType>WChar</DataType>
                  <DataSize>1</DataSize>
                  <Source xsi:type="ColumnBinding" dwd:design-time-name="86dc3ebc-920c-4ae2-a7bf-0b6fdccc6984">
                    <TableID>PrestazioiDomande</TableID>
                    <ColumnID>stato</ColumnID>
                  </Source>
                </KeyColumn>
              </KeyColumns>
              <Type>Granularity</Type>
            </Attribute>
          </Attributes>
        </Dimension>
        <Dimension xsi:type="RegularMeasureGroupDimension" dwd:design-time-name="1b83d8c1-eb3a-42a3-9be0-43da3edd2ccd">
          <CubeDimensionID>Lavoratori</CubeDimensionID>
          <Attributes>
            <Attribute dwd:design-time-name="27c87fe9-554b-4df5-a751-03c53422c7f1">
              <AttributeID>Id Lavoratore</AttributeID>
              <KeyColumns>
                <KeyColumn dwd:design-time-name="40530355-fb8e-4a28-915a-be825ea7e133">
                  <NullProcessing>UnknownMember</NullProcessing>
                  <DataType>Integer</DataType>
                  <Source xsi:type="ColumnBinding" dwd:design-time-name="2d698932-757b-4a96-a572-1f81c56495f2">
                    <TableID>PrestazioiDomande</TableID>
                    <ColumnID>idLavoratore</ColumnID>
                  </Source>
                </KeyColumn>
              </KeyColumns>
              <Type>Granularity</Type>
            </Attribute>
          </Attributes>
        </Dimension>
        <Dimension xsi:type="RegularMeasureGroupDimension" dwd:design-time-name="30a446f1-c861-4027-aea4-3326b067c14b">
          <CubeDimensionID>Imprese</CubeDimensionID>
          <Attributes>
            <Attribute dwd:design-time-name="325e73f5-003c-4b65-9365-fc2822af630f">
              <AttributeID>Id Impresa</AttributeID>
              <KeyColumns>
                <KeyColumn dwd:design-time-name="48b1b333-0ce8-4466-8156-393a9c4340a0">
                  <NullProcessing>UnknownMember</NullProcessing>
                  <DataType>Integer</DataType>
                  <Source xsi:type="ColumnBinding" dwd:design-time-name="5713b2d5-9d98-40fc-919d-06c063d89150">
                    <TableID>PrestazioiDomande</TableID>
                    <ColumnID>idImpresa</ColumnID>
                  </Source>
                </KeyColumn>
              </KeyColumns>
              <Type>Granularity</Type>
            </Attribute>
          </Attributes>
        </Dimension>
      </Dimensions>
      <Partitions />
    </MeasureGroup>
    <MeasureGroup dwd:design-time-name="688a5c0c-d648-491f-accc-adee969b6d15">
      <ID>Prestazioni Liquidate</ID>
      <Name>Lavoratori</Name>
      <CreatedTimestamp>0001-01-01T00:00:00Z</CreatedTimestamp>
      <LastSchemaUpdate>0001-01-01T00:00:00Z</LastSchemaUpdate>
      <LastProcessed>0001-01-01T00:00:00Z</LastProcessed>
      <State>Unprocessed</State>
      <Measures>
        <Measure dwd:design-time-name="f90b655c-2ba3-4265-83cd-d6f6dc595d41">
          <ID>Id Lavoratore Distinct Count</ID>
          <Name>Lavoratori Liquidati</Name>
          <AggregateFunction>DistinctCount</AggregateFunction>
          <DataType>Integer</DataType>
          <Source dwd:design-time-name="b4854221-2ef3-4da7-93e2-4e5870bebbec">
            <DataType>Integer</DataType>
            <Source xsi:type="ColumnBinding" dwd:design-time-name="95b1ffeb-4748-495f-b58e-5cd32479f344">
              <TableID>Prestazioni</TableID>
              <ColumnID>idLavoratore</ColumnID>
            </Source>
          </Source>
        </Measure>
      </Measures>
      <StorageMode>Molap</StorageMode>
      <ProcessingMode>Regular</ProcessingMode>
      <Dimensions>
        <Dimension xsi:type="DegenerateMeasureGroupDimension" dwd:design-time-name="76954127-e862-4457-a5a7-c55bbfc1dc88">
          <CubeDimensionID>Prestazioni</CubeDimensionID>
          <Attributes>
            <Attribute dwd:design-time-name="cfff60a8-6136-4b98-adad-a4e79b7abca2">
              <AttributeID>Id</AttributeID>
              <KeyColumns>
                <KeyColumn dwd:design-time-name="b6995923-01dd-426b-a81a-338f240f1aac">
                  <DataType>WChar</DataType>
                  <DataSize>60</DataSize>
                  <Source xsi:type="ColumnBinding" dwd:design-time-name="17708127-c3e7-45e2-be1c-524ef933b51a">
                    <TableID>Prestazioni</TableID>
                    <ColumnID>id</ColumnID>
                  </Source>
                </KeyColumn>
              </KeyColumns>
              <Type>Granularity</Type>
            </Attribute>
          </Attributes>
        </Dimension>
        <Dimension xsi:type="RegularMeasureGroupDimension" dwd:design-time-name="7a8b5de4-9901-49b5-a184-23ec2fe91883">
          <CubeDimensionID>Data Domanda</CubeDimensionID>
          <Attributes>
            <Attribute dwd:design-time-name="09370b0c-5ec4-40aa-8675-0b840d6602a1">
              <AttributeID>PK Date</AttributeID>
              <KeyColumns>
                <KeyColumn dwd:design-time-name="2089d50c-04a3-4a95-8af9-1c6405c23c89">
                  <NullProcessing>UnknownMember</NullProcessing>
                  <DataType>Date</DataType>
                  <Source xsi:type="ColumnBinding" dwd:design-time-name="fade5d81-0545-43d6-9ef1-aefeb4505379">
                    <TableID>Prestazioni</TableID>
                    <ColumnID>dataDomanda</ColumnID>
                  </Source>
                </KeyColumn>
              </KeyColumns>
              <Type>Granularity</Type>
            </Attribute>
          </Attributes>
        </Dimension>
        <Dimension xsi:type="RegularMeasureGroupDimension" dwd:design-time-name="2a4c6097-ac11-42bf-80e3-5094411f805b">
          <CubeDimensionID>Data Liquidazione</CubeDimensionID>
          <Attributes>
            <Attribute dwd:design-time-name="f4315a13-d0a9-4976-a107-59404365c78b">
              <AttributeID>PK Date</AttributeID>
              <KeyColumns>
                <KeyColumn dwd:design-time-name="d1197e89-40af-44a6-a483-864de5d03216">
                  <NullProcessing>UnknownMember</NullProcessing>
                  <DataType>Date</DataType>
                  <Source xsi:type="ColumnBinding" dwd:design-time-name="dff4436b-4c92-4a21-ba4c-a1e27bf3ddaa">
                    <TableID>Prestazioni</TableID>
                    <ColumnID>dataLiquidazione</ColumnID>
                  </Source>
                </KeyColumn>
              </KeyColumns>
              <Type>Granularity</Type>
            </Attribute>
          </Attributes>
        </Dimension>
        <Dimension xsi:type="RegularMeasureGroupDimension" dwd:design-time-name="839a8ee9-c7d6-4739-87e0-c53aff3a00f9">
          <CubeDimensionID>Tipi Prestazione</CubeDimensionID>
          <Attributes>
            <Attribute dwd:design-time-name="11885066-d51b-42ec-846f-cbe523212afb">
              <AttributeID>Id Tipo Prestazione</AttributeID>
              <KeyColumns>
                <KeyColumn dwd:design-time-name="afdc2cb2-07d3-4eb9-b9cd-7b7a4c03ab39">
                  <NullProcessing>UnknownMember</NullProcessing>
                  <DataType>WChar</DataType>
                  <DataSize>6</DataSize>
                  <Source xsi:type="ColumnBinding" dwd:design-time-name="c5135ad5-9689-436b-90e1-fd2583fcd009">
                    <TableID>Prestazioni</TableID>
                    <ColumnID>idPrestazione</ColumnID>
                  </Source>
                </KeyColumn>
              </KeyColumns>
              <Type>Granularity</Type>
            </Attribute>
          </Attributes>
        </Dimension>
        <Dimension xsi:type="RegularMeasureGroupDimension" dwd:design-time-name="6babeeb4-8d40-493a-85aa-a0a135aa4dc2">
          <CubeDimensionID>Prestazioni Stati Domanda</CubeDimensionID>
          <Attributes>
            <Attribute dwd:design-time-name="39df79f2-73c2-4a6c-8707-84715b530bcc">
              <AttributeID>Id Prestazioni Stato Domanda</AttributeID>
              <KeyColumns>
                <KeyColumn dwd:design-time-name="95e37fa7-f2f0-481b-b79d-a69898c8a6c7">
                  <NullProcessing>UnknownMember</NullProcessing>
                  <DataType>WChar</DataType>
                  <DataSize>1</DataSize>
                  <Source xsi:type="ColumnBinding" dwd:design-time-name="7b9194c4-fd01-4ff6-bcfc-b2e6fb7d922b">
                    <TableID>Prestazioni</TableID>
                    <ColumnID>stato</ColumnID>
                  </Source>
                </KeyColumn>
              </KeyColumns>
              <Type>Granularity</Type>
            </Attribute>
          </Attributes>
        </Dimension>
        <Dimension xsi:type="RegularMeasureGroupDimension" dwd:design-time-name="ddab569b-6c11-4f80-947b-635fefececce">
          <CubeDimensionID>Lavoratori</CubeDimensionID>
          <Attributes>
            <Attribute dwd:design-time-name="3c8e6078-c0bf-4dca-ab04-a5a09db405ec">
              <AttributeID>Id Lavoratore</AttributeID>
              <KeyColumns>
                <KeyColumn dwd:design-time-name="362e8f3a-a6cd-4124-bb6f-596c17bc9b17">
                  <NullProcessing>UnknownMember</NullProcessing>
                  <DataType>Integer</DataType>
                  <Source xsi:type="ColumnBinding" dwd:design-time-name="9e7024a2-5fd1-49d5-9554-82853dc4f4bc">
                    <TableID>Prestazioni</TableID>
                    <ColumnID>idLavoratore</ColumnID>
                  </Source>
                </KeyColumn>
              </KeyColumns>
              <Type>Granularity</Type>
            </Attribute>
          </Attributes>
        </Dimension>
        <Dimension xsi:type="RegularMeasureGroupDimension" dwd:design-time-name="a2efb0c6-5c4b-4344-b616-5e7e1a7b70d7">
          <CubeDimensionID>Imprese</CubeDimensionID>
          <Attributes>
            <Attribute dwd:design-time-name="4643ab88-0614-4577-89dd-a946460d0ec6">
              <AttributeID>Id Impresa</AttributeID>
              <KeyColumns>
                <KeyColumn dwd:design-time-name="fc12be27-4137-415c-9a40-a454d955cf74">
                  <NullProcessing>UnknownMember</NullProcessing>
                  <DataType>Integer</DataType>
                  <Source xsi:type="ColumnBinding" dwd:design-time-name="fa05892f-6f55-4e24-80bc-8bd454cfff31">
                    <TableID>Prestazioni</TableID>
                    <ColumnID>idImpresa</ColumnID>
                  </Source>
                </KeyColumn>
              </KeyColumns>
              <Type>Granularity</Type>
            </Attribute>
          </Attributes>
        </Dimension>
      </Dimensions>
      <Partitions />
    </MeasureGroup>
    <MeasureGroup dwd:design-time-name="549c981b-1759-48a1-94c7-e0fcbd6b5cf2">
      <ID>Prestazioni 1</ID>
      <Name>Lavoratori richiedenti</Name>
      <CreatedTimestamp>0001-01-01T00:00:00Z</CreatedTimestamp>
      <LastSchemaUpdate>0001-01-01T00:00:00Z</LastSchemaUpdate>
      <LastProcessed>0001-01-01T00:00:00Z</LastProcessed>
      <State>Unprocessed</State>
      <Measures>
        <Measure dwd:design-time-name="c5f712f3-175a-4473-b417-f49a0e5aae37">
          <ID>Distinct Count di Id Lavoratore</ID>
          <Name>Lavoratori richiedenti</Name>
          <AggregateFunction>DistinctCount</AggregateFunction>
          <DataType>Integer</DataType>
          <Source dwd:design-time-name="72a8ec64-e0f2-4bd4-b4b1-4ae01456c3a2">
            <DataType>Integer</DataType>
            <Source xsi:type="ColumnBinding" dwd:design-time-name="18ba5641-25c3-42c6-ae6c-71d314ae55b4">
              <TableID>PrestazioniComplete</TableID>
              <ColumnID>idLavoratore</ColumnID>
            </Source>
          </Source>
        </Measure>
      </Measures>
      <StorageMode>Molap</StorageMode>
      <ProcessingMode>Regular</ProcessingMode>
      <Dimensions>
        <Dimension xsi:type="DegenerateMeasureGroupDimension" dwd:design-time-name="7b133d85-1fe9-4045-8550-a4aa47f7d0af">
          <CubeDimensionID>Prestazioni Complete</CubeDimensionID>
          <Attributes>
            <Attribute dwd:design-time-name="b3ccaf17-2e7a-4dda-ad77-655b67e57db5">
              <AttributeID>Id</AttributeID>
              <KeyColumns>
                <KeyColumn dwd:design-time-name="dc2ac34c-e1ba-403b-b7ab-c99c0cbaf697">
                  <DataType>WChar</DataType>
                  <DataSize>60</DataSize>
                  <Source xsi:type="ColumnBinding" dwd:design-time-name="e78d1d1d-3fe6-4361-a99b-f7482c7bafb9">
                    <TableID>PrestazioniComplete</TableID>
                    <ColumnID>id</ColumnID>
                  </Source>
                </KeyColumn>
              </KeyColumns>
              <Type>Granularity</Type>
            </Attribute>
          </Attributes>
        </Dimension>
        <Dimension xsi:type="RegularMeasureGroupDimension" dwd:design-time-name="d6b131db-8fab-4ed8-be9a-6ac6e8e43641">
          <CubeDimensionID>Data Domanda</CubeDimensionID>
          <Attributes>
            <Attribute dwd:design-time-name="4a763ae3-ec79-424b-b94c-7973a96b0317">
              <AttributeID>PK Date</AttributeID>
              <KeyColumns>
                <KeyColumn dwd:design-time-name="0cfe5de5-cfd7-4943-8ff7-a90e7bf90f7a">
                  <NullProcessing>UnknownMember</NullProcessing>
                  <DataType>Date</DataType>
                  <Source xsi:type="ColumnBinding" dwd:design-time-name="1e5341a8-9382-47aa-baa8-f7e4abdc4796">
                    <TableID>PrestazioniComplete</TableID>
                    <ColumnID>dataDomanda</ColumnID>
                  </Source>
                </KeyColumn>
              </KeyColumns>
              <Type>Granularity</Type>
            </Attribute>
          </Attributes>
        </Dimension>
        <Dimension xsi:type="RegularMeasureGroupDimension" dwd:design-time-name="7540ddc6-82fb-4571-bcb0-93e67f3317e7">
          <CubeDimensionID>Tipi Prestazione</CubeDimensionID>
          <Attributes>
            <Attribute dwd:design-time-name="89606dac-7968-4c59-8c02-e0874fe41dcc">
              <AttributeID>Id Tipo Prestazione</AttributeID>
              <KeyColumns>
                <KeyColumn dwd:design-time-name="2717b463-e9a5-4ad3-9484-848f229575f4">
                  <NullProcessing>UnknownMember</NullProcessing>
                  <DataType>WChar</DataType>
                  <DataSize>6</DataSize>
                  <Source xsi:type="ColumnBinding" dwd:design-time-name="c55972e4-3684-4a3d-99bc-3a35097f0e2d">
                    <TableID>PrestazioniComplete</TableID>
                    <ColumnID>idTipoPrestazione</ColumnID>
                  </Source>
                </KeyColumn>
              </KeyColumns>
              <Type>Granularity</Type>
            </Attribute>
          </Attributes>
        </Dimension>
        <Dimension xsi:type="RegularMeasureGroupDimension" dwd:design-time-name="c271fb05-41a8-4076-a880-4d19a2765e9f">
          <CubeDimensionID>Prestazioni Stati Domanda</CubeDimensionID>
          <Attributes>
            <Attribute dwd:design-time-name="8aca12e5-e382-49be-b138-d4f0fea2656b">
              <AttributeID>Id Prestazioni Stato Domanda</AttributeID>
              <KeyColumns>
                <KeyColumn dwd:design-time-name="4c294b4f-8c7f-4d07-a325-faca71eebdd2">
                  <NullProcessing>UnknownMember</NullProcessing>
                  <DataType>WChar</DataType>
                  <DataSize>1</DataSize>
                  <Source xsi:type="ColumnBinding" dwd:design-time-name="de8e41f5-0cd4-4b6a-8414-33339ce30bff">
                    <TableID>PrestazioniComplete</TableID>
                    <ColumnID>stato</ColumnID>
                  </Source>
                </KeyColumn>
              </KeyColumns>
              <Type>Granularity</Type>
            </Attribute>
          </Attributes>
        </Dimension>
        <Dimension xsi:type="RegularMeasureGroupDimension" dwd:design-time-name="387d8a14-3701-48c7-8c42-a190ac3ec92d">
          <CubeDimensionID>Lavoratori</CubeDimensionID>
          <Attributes>
            <Attribute dwd:design-time-name="6ffde0dd-eb38-43d2-b5c3-409410460090">
              <AttributeID>Id Lavoratore</AttributeID>
              <KeyColumns>
                <KeyColumn dwd:design-time-name="ab6367fc-e79e-4718-bfe0-8152b1bae43e">
                  <NullProcessing>UnknownMember</NullProcessing>
                  <DataType>Integer</DataType>
                  <Source xsi:type="ColumnBinding" dwd:design-time-name="a41c9dd9-79fd-4b1b-b7c5-9ad2c2a25ae4">
                    <TableID>PrestazioniComplete</TableID>
                    <ColumnID>idLavoratore</ColumnID>
                  </Source>
                </KeyColumn>
              </KeyColumns>
              <Type>Granularity</Type>
            </Attribute>
          </Attributes>
        </Dimension>
        <Dimension xsi:type="RegularMeasureGroupDimension" dwd:design-time-name="27f1a8a2-5015-4ef9-9946-6744fb2042a3">
          <CubeDimensionID>Imprese</CubeDimensionID>
          <Attributes>
            <Attribute dwd:design-time-name="d8dc3500-7abc-47b7-b06f-09ab446b81f4">
              <AttributeID>Id Impresa</AttributeID>
              <KeyColumns>
                <KeyColumn dwd:design-time-name="84cef94f-5dad-4513-a402-047e1b1a21f0">
                  <NullProcessing>UnknownMember</NullProcessing>
                  <DataType>Integer</DataType>
                  <Source xsi:type="ColumnBinding" dwd:design-time-name="0e3a46c5-791b-445a-84f1-f259b1bd22e3">
                    <TableID>PrestazioniComplete</TableID>
                    <ColumnID>idImpresa</ColumnID>
                  </Source>
                </KeyColumn>
              </KeyColumns>
              <Type>Granularity</Type>
            </Attribute>
          </Attributes>
        </Dimension>
      </Dimensions>
      <Partitions />
    </MeasureGroup>
    <MeasureGroup dwd:design-time-name="0ae47cb2-9c2d-4116-96ab-c74f3ff43db0">
      <ID>Prestazioni 2</ID>
      <Name>Imprese richiedenti</Name>
      <CreatedTimestamp>0001-01-01T00:00:00Z</CreatedTimestamp>
      <LastSchemaUpdate>0001-01-01T00:00:00Z</LastSchemaUpdate>
      <LastProcessed>0001-01-01T00:00:00Z</LastProcessed>
      <State>Unprocessed</State>
      <Measures>
        <Measure dwd:design-time-name="684b8124-afd4-4a66-84fa-54630eea51f2">
          <ID>Distinct Count di Id Impresa</ID>
          <Name>Imprese richiedenti</Name>
          <AggregateFunction>DistinctCount</AggregateFunction>
          <DataType>Integer</DataType>
          <Source dwd:design-time-name="4fc57533-aafb-4434-8f08-71b92b27dab3">
            <DataType>Integer</DataType>
            <Source xsi:type="ColumnBinding" dwd:design-time-name="e2366c45-a5a8-4123-bef2-cfc9bf88f383">
              <TableID>PrestazioniComplete</TableID>
              <ColumnID>idImpresa</ColumnID>
            </Source>
          </Source>
        </Measure>
      </Measures>
      <StorageMode>Molap</StorageMode>
      <ProcessingMode>Regular</ProcessingMode>
      <Dimensions>
        <Dimension xsi:type="DegenerateMeasureGroupDimension" dwd:design-time-name="fcf1c1ca-7114-47e6-8cf3-620bf9f0dab5">
          <CubeDimensionID>Prestazioni Complete</CubeDimensionID>
          <Attributes>
            <Attribute dwd:design-time-name="f2c2e810-a05a-472f-a532-d2274de3b8bc">
              <AttributeID>Id</AttributeID>
              <KeyColumns>
                <KeyColumn dwd:design-time-name="b33692e7-f0ff-4755-a1b7-9f21b721bb57">
                  <DataType>WChar</DataType>
                  <DataSize>60</DataSize>
                  <Source xsi:type="ColumnBinding" dwd:design-time-name="87d4784d-f730-440a-b063-f419822960d1">
                    <TableID>PrestazioniComplete</TableID>
                    <ColumnID>id</ColumnID>
                  </Source>
                </KeyColumn>
              </KeyColumns>
              <Type>Granularity</Type>
            </Attribute>
          </Attributes>
        </Dimension>
        <Dimension xsi:type="RegularMeasureGroupDimension" dwd:design-time-name="e8143307-d72e-4a43-9b62-9c74fab0a3db">
          <CubeDimensionID>Data Domanda</CubeDimensionID>
          <Attributes>
            <Attribute dwd:design-time-name="3c44053c-fa1e-4d8b-b45f-6817eb062f0b">
              <AttributeID>PK Date</AttributeID>
              <KeyColumns>
                <KeyColumn dwd:design-time-name="8f05e808-8be2-4a0f-bdef-50d3465c1198">
                  <NullProcessing>UnknownMember</NullProcessing>
                  <DataType>Date</DataType>
                  <Source xsi:type="ColumnBinding" dwd:design-time-name="ba8164f9-aab7-4385-92e5-176cdf3bfbb1">
                    <TableID>PrestazioniComplete</TableID>
                    <ColumnID>dataDomanda</ColumnID>
                  </Source>
                </KeyColumn>
              </KeyColumns>
              <Type>Granularity</Type>
            </Attribute>
          </Attributes>
        </Dimension>
        <Dimension xsi:type="RegularMeasureGroupDimension" dwd:design-time-name="a46021e8-7e1b-4431-95b9-27c2bc0b544a">
          <CubeDimensionID>Tipi Prestazione</CubeDimensionID>
          <Attributes>
            <Attribute dwd:design-time-name="d44fcffe-c838-455b-b90b-ced1750d6d69">
              <AttributeID>Id Tipo Prestazione</AttributeID>
              <KeyColumns>
                <KeyColumn dwd:design-time-name="0934685f-1051-4acd-9ab0-5e57466587cc">
                  <NullProcessing>UnknownMember</NullProcessing>
                  <DataType>WChar</DataType>
                  <DataSize>6</DataSize>
                  <Source xsi:type="ColumnBinding" dwd:design-time-name="95570a66-327a-4ead-a149-51caa2ab5747">
                    <TableID>PrestazioniComplete</TableID>
                    <ColumnID>idTipoPrestazione</ColumnID>
                  </Source>
                </KeyColumn>
              </KeyColumns>
              <Type>Granularity</Type>
            </Attribute>
          </Attributes>
        </Dimension>
        <Dimension xsi:type="RegularMeasureGroupDimension" dwd:design-time-name="c58ea648-e072-4ac8-9e4d-a14a486c75f4">
          <CubeDimensionID>Prestazioni Stati Domanda</CubeDimensionID>
          <Attributes>
            <Attribute dwd:design-time-name="35a062ff-81bf-4fc6-8695-ff8980d9dc3c">
              <AttributeID>Id Prestazioni Stato Domanda</AttributeID>
              <KeyColumns>
                <KeyColumn dwd:design-time-name="e52f7ab5-80a0-4d35-b98f-8e97a9d4a5af">
                  <NullProcessing>UnknownMember</NullProcessing>
                  <DataType>WChar</DataType>
                  <DataSize>1</DataSize>
                  <Source xsi:type="ColumnBinding" dwd:design-time-name="52a5b68e-b944-482e-bda2-3d39994add7a">
                    <TableID>PrestazioniComplete</TableID>
                    <ColumnID>stato</ColumnID>
                  </Source>
                </KeyColumn>
              </KeyColumns>
              <Type>Granularity</Type>
            </Attribute>
          </Attributes>
        </Dimension>
        <Dimension xsi:type="RegularMeasureGroupDimension" dwd:design-time-name="5bf74bc5-3698-49ae-a1e1-d754f49488dd">
          <CubeDimensionID>Lavoratori</CubeDimensionID>
          <Attributes>
            <Attribute dwd:design-time-name="a7bf3897-1893-4e64-abbc-cc06b0a9bb87">
              <AttributeID>Id Lavoratore</AttributeID>
              <KeyColumns>
                <KeyColumn dwd:design-time-name="6b581070-50af-43ca-bcb5-cadf78942333">
                  <NullProcessing>UnknownMember</NullProcessing>
                  <DataType>Integer</DataType>
                  <Source xsi:type="ColumnBinding" dwd:design-time-name="b22a072c-33d9-4686-ac11-2da96714729b">
                    <TableID>PrestazioniComplete</TableID>
                    <ColumnID>idLavoratore</ColumnID>
                  </Source>
                </KeyColumn>
              </KeyColumns>
              <Type>Granularity</Type>
            </Attribute>
          </Attributes>
        </Dimension>
        <Dimension xsi:type="RegularMeasureGroupDimension" dwd:design-time-name="c38416f4-c599-4d01-a914-e7a9a3a235d4">
          <CubeDimensionID>Imprese</CubeDimensionID>
          <Attributes>
            <Attribute dwd:design-time-name="ac12cd88-aad6-4ad5-b52b-f51f6bb2a384">
              <AttributeID>Id Impresa</AttributeID>
              <KeyColumns>
                <KeyColumn dwd:design-time-name="7900fb25-893c-4359-ae60-46df24410b2c">
                  <NullProcessing>UnknownMember</NullProcessing>
                  <DataType>Integer</DataType>
                  <Source xsi:type="ColumnBinding" dwd:design-time-name="0ebfeacb-4ad2-40d4-be72-6de66dd0537a">
                    <TableID>PrestazioniComplete</TableID>
                    <ColumnID>idImpresa</ColumnID>
                  </Source>
                </KeyColumn>
              </KeyColumns>
              <Type>Granularity</Type>
            </Attribute>
          </Attributes>
        </Dimension>
      </Dimensions>
      <Partitions />
    </MeasureGroup>
  </MeasureGroups>
  <Source dwd:design-time-name="1707403c-c2fc-4ba2-b3a3-d9ae2d109f4a">
    <DataSourceViewID>Prestazioni</DataSourceViewID>
  </Source>
  <MdxScripts>
    <MdxScript dwd:design-time-name="dfcc59d4-84fa-49f1-b2c1-dff8d9c3ec49">
      <ID>MdxScript</ID>
      <Name>MdxScript</Name>
      <CreatedTimestamp>0001-01-01T00:00:00Z</CreatedTimestamp>
      <LastSchemaUpdate>0001-01-01T00:00:00Z</LastSchemaUpdate>
      <Commands>
        <Command>
          <Text>/*
The CALCULATE command controls the aggregation of leaf cells in the cube.
If the CALCULATE command is deleted or modified, the data within the cube is affected.
You should edit this command only if you manually specify how the cube is aggregated.
*/
CALCULATE; 
CREATE MEMBER CURRENTCUBE.[Measures].TempoMedioDiLiquidazione
 AS [Measures].[Tempo Medio Liquidazione]/[Measures].[Numero Prestazioni Liquidate], 
VISIBLE = 1  ; </Text>
        </Command>
      </Commands>
    </MdxScript>
  </MdxScripts>
</Cube>